<svg xmlns="http://www.w3.org/2000/svg" xmlns:xlink="http://www.w3.org/1999/xlink" width="768" height="576" viewBox="0 0 576 432">
  <defs>
    <style>
      *{stroke-linejoin:round;stroke-linecap:butt}
    </style>
  </defs>
  <g id="figure_1">
    <path id="patch_1" d="M0 432h576V0H0z" style="fill:#fff"/>
    <g id="axes_1">
      <path id="patch_2" d="M69.784 381.166h485.872V14.599H69.784z" style="fill:#fff"/>
      <g id="matplotlib.axis_1">
        <g id="xtick_1">
          <g id="line2d_1">
            <defs>
              <path id="m7f42352c54" d="M0 0v3.5" style="stroke:#000;stroke-width:.8"/>
            </defs>
            <use xlink:href="#m7f42352c54" x="69.784" y="381.166" style="stroke:#000;stroke-width:.8"/>
          </g>
          <g id="text_1" transform="matrix(.1 0 0 -.1 63.422 395.764)">
            <defs>
              <path id="DejaVuSans-32" d="M1228 531h2203V0H469v531q359 372 979 998 621 627 780 809 303 340 423 576 121 236 121 464 0 372-261 606-261 235-680 235-297 0-627-103-329-103-704-313v638q381 153 712 231 332 78 607 78 725 0 1156-363 431-362 431-968 0-288-108-546-107-257-392-607-78-91-497-524-418-433-1181-1211z" transform="scale(.01563)"/>
              <path id="DejaVuSans-30" d="M2034 4250q-487 0-733-480-245-479-245-1442 0-959 245-1439 246-480 733-480 491 0 736 480 246 480 246 1439 0 963-246 1442-245 480-736 480zm0 500q785 0 1199-621 414-620 414-1801 0-1178-414-1799Q2819-91 2034-91q-784 0-1198 620-414 621-414 1799 0 1181 414 1801 414 621 1198 621z" transform="scale(.01563)"/>
            </defs>
            <use xlink:href="#DejaVuSans-32"/>
            <use xlink:href="#DejaVuSans-30" x="63.623"/>
          </g>
        </g>
        <g id="xtick_2">
          <use xlink:href="#m7f42352c54" id="line2d_2" x="100.151" y="381.166" style="stroke:#000;stroke-width:.8"/>
          <g id="text_2" transform="matrix(.1 0 0 -.1 93.789 395.764)">
            <defs>
              <path id="DejaVuSans-33" d="M2597 2516q453-97 707-404 255-306 255-756 0-690-475-1069Q2609-91 1734-91q-293 0-604 58T488 141v609q262-153 574-231 313-78 654-78 593 0 904 234t311 681q0 413-289 645-289 233-804 233h-544v519h569q465 0 712 186t247 536q0 359-255 551-254 193-729 193-260 0-557-57-297-56-653-174v562q360 100 674 150t592 50q719 0 1137-327 419-326 419-882 0-388-222-655t-631-370z" transform="scale(.01563)"/>
              <path id="DejaVuSans-35" d="M691 4666h2478v-532H1269V2991q137 47 274 70 138 23 276 23 781 0 1237-428 457-428 457-1159 0-753-469-1171Q2575-91 1722-91q-294 0-599 50Q819 9 494 109v635q281-153 581-228t634-75q541 0 856 284 316 284 316 772 0 487-316 771-315 285-856 285-253 0-505-56-251-56-513-175v2344z" transform="scale(.01563)"/>
            </defs>
            <use xlink:href="#DejaVuSans-33"/>
            <use xlink:href="#DejaVuSans-35" x="63.623"/>
          </g>
        </g>
        <g id="xtick_3">
          <use xlink:href="#m7f42352c54" id="line2d_3" x="130.518" y="381.166" style="stroke:#000;stroke-width:.8"/>
          <g id="text_3" transform="matrix(.1 0 0 -.1 124.156 395.764)">
            <use xlink:href="#DejaVuSans-35"/>
            <use xlink:href="#DejaVuSans-30" x="63.623"/>
          </g>
        </g>
        <g id="xtick_4">
          <use xlink:href="#m7f42352c54" id="line2d_4" x="160.885" y="381.166" style="stroke:#000;stroke-width:.8"/>
          <g id="text_4" transform="matrix(.1 0 0 -.1 154.523 395.764)">
            <defs>
              <path id="DejaVuSans-36" d="M2113 2584q-425 0-674-291-248-290-248-796 0-503 248-796 249-292 674-292t673 292q248 293 248 796 0 506-248 796-248 291-673 291zm1253 1979v-575q-238 112-480 171-242 60-480 60-625 0-955-422-329-422-376-1275 184 272 462 417 279 145 613 145 703 0 1111-427 408-426 408-1160 0-719-425-1154Q2819-91 2113-91q-810 0-1238 620-428 621-428 1799 0 1106 525 1764t1409 658q238 0 480-47t505-140z" transform="scale(.01563)"/>
            </defs>
            <use xlink:href="#DejaVuSans-36"/>
            <use xlink:href="#DejaVuSans-35" x="63.623"/>
          </g>
        </g>
        <g id="xtick_5">
          <use xlink:href="#m7f42352c54" id="line2d_5" x="191.252" y="381.166" style="stroke:#000;stroke-width:.8"/>
          <g id="text_5" transform="matrix(.1 0 0 -.1 184.89 395.764)">
            <defs>
              <path id="DejaVuSans-38" d="M2034 2216q-450 0-708-241-257-241-257-662 0-422 257-663 258-241 708-241t709 242q260 243 260 662 0 421-258 662-257 241-711 241zm-631 268q-406 100-633 378-226 279-226 679 0 559 398 884 399 325 1092 325 697 0 1094-325t397-884q0-400-227-679-226-278-629-378 456-106 710-416 255-309 255-755 0-679-414-1042Q2806-91 2034-91q-771 0-1186 362-414 363-414 1042 0 446 256 755 257 310 713 416zm-231 997q0-362 226-565 227-203 636-203 407 0 636 203 230 203 230 565 0 363-230 566-229 203-636 203-409 0-636-203-226-203-226-566z" transform="scale(.01563)"/>
            </defs>
            <use xlink:href="#DejaVuSans-38"/>
            <use xlink:href="#DejaVuSans-30" x="63.623"/>
          </g>
        </g>
        <g id="xtick_6">
          <use xlink:href="#m7f42352c54" id="line2d_6" x="221.619" y="381.166" style="stroke:#000;stroke-width:.8"/>
          <g id="text_6" transform="matrix(.1 0 0 -.1 215.257 395.764)">
            <defs>
              <path id="DejaVuSans-39" d="M703 97v575q238-113 481-172 244-59 479-59 625 0 954 420 330 420 377 1277-181-269-460-413-278-144-615-144-700 0-1108 423-408 424-408 1159 0 718 425 1152 425 435 1131 435 810 0 1236-621 427-620 427-1801 0-1103-524-1761Q2575-91 1691-91q-238 0-482 47Q966 3 703 97zm1256 1978q425 0 673 290 249 291 249 798 0 503-249 795-248 292-673 292t-673-292q-248-292-248-795 0-507 248-798 248-290 673-290z" transform="scale(.01563)"/>
            </defs>
            <use xlink:href="#DejaVuSans-39"/>
            <use xlink:href="#DejaVuSans-35" x="63.623"/>
          </g>
        </g>
        <g id="xtick_7">
          <use xlink:href="#m7f42352c54" id="line2d_7" x="251.986" y="381.166" style="stroke:#000;stroke-width:.8"/>
          <g id="text_7" transform="matrix(.1 0 0 -.1 242.443 395.764)">
            <defs>
              <path id="DejaVuSans-31" d="M794 531h1031v3560L703 3866v575l1116 225h631V531h1031V0H794v531z" transform="scale(.01563)"/>
            </defs>
            <use xlink:href="#DejaVuSans-31"/>
            <use xlink:href="#DejaVuSans-31" x="63.623"/>
            <use xlink:href="#DejaVuSans-30" x="127.246"/>
          </g>
        </g>
        <g id="xtick_8">
          <use xlink:href="#m7f42352c54" id="line2d_8" x="282.353" y="381.166" style="stroke:#000;stroke-width:.8"/>
          <g id="text_8" transform="matrix(.1 0 0 -.1 272.81 395.764)">
            <use xlink:href="#DejaVuSans-31"/>
            <use xlink:href="#DejaVuSans-32" x="63.623"/>
            <use xlink:href="#DejaVuSans-35" x="127.246"/>
          </g>
        </g>
        <g id="xtick_9">
          <use xlink:href="#m7f42352c54" id="line2d_9" x="312.72" y="381.166" style="stroke:#000;stroke-width:.8"/>
          <g id="text_9" transform="matrix(.1 0 0 -.1 303.177 395.764)">
            <defs>
              <path id="DejaVuSans-34" d="M2419 4116 825 1625h1594v2491zm-166 550h794V1625h666v-525h-666V0h-628v1100H313v609l1940 2957z" transform="scale(.01563)"/>
            </defs>
            <use xlink:href="#DejaVuSans-31"/>
            <use xlink:href="#DejaVuSans-34" x="63.623"/>
            <use xlink:href="#DejaVuSans-30" x="127.246"/>
          </g>
        </g>
        <g id="xtick_10">
          <use xlink:href="#m7f42352c54" id="line2d_10" x="343.087" y="381.166" style="stroke:#000;stroke-width:.8"/>
          <g id="text_10" transform="matrix(.1 0 0 -.1 333.544 395.764)">
            <use xlink:href="#DejaVuSans-31"/>
            <use xlink:href="#DejaVuSans-35" x="63.623"/>
            <use xlink:href="#DejaVuSans-35" x="127.246"/>
          </g>
        </g>
        <g id="xtick_11">
          <use xlink:href="#m7f42352c54" id="line2d_11" x="373.454" y="381.166" style="stroke:#000;stroke-width:.8"/>
          <g id="text_11" transform="matrix(.1 0 0 -.1 363.91 395.764)">
            <defs>
              <path id="DejaVuSans-37" d="M525 4666h3000v-269L1831 0h-659l1594 4134H525v532z" transform="scale(.01563)"/>
            </defs>
            <use xlink:href="#DejaVuSans-31"/>
            <use xlink:href="#DejaVuSans-37" x="63.623"/>
            <use xlink:href="#DejaVuSans-30" x="127.246"/>
          </g>
        </g>
        <g id="xtick_12">
          <use xlink:href="#m7f42352c54" id="line2d_12" x="403.821" y="381.166" style="stroke:#000;stroke-width:.8"/>
          <g id="text_12" transform="matrix(.1 0 0 -.1 394.278 395.764)">
            <use xlink:href="#DejaVuSans-31"/>
            <use xlink:href="#DejaVuSans-38" x="63.623"/>
            <use xlink:href="#DejaVuSans-35" x="127.246"/>
          </g>
        </g>
        <g id="xtick_13">
          <use xlink:href="#m7f42352c54" id="line2d_13" x="434.188" y="381.166" style="stroke:#000;stroke-width:.8"/>
          <g id="text_13" transform="matrix(.1 0 0 -.1 424.645 395.764)">
            <use xlink:href="#DejaVuSans-32"/>
            <use xlink:href="#DejaVuSans-30" x="63.623"/>
            <use xlink:href="#DejaVuSans-30" x="127.246"/>
          </g>
        </g>
        <g id="xtick_14">
          <use xlink:href="#m7f42352c54" id="line2d_14" x="464.555" y="381.166" style="stroke:#000;stroke-width:.8"/>
          <g id="text_14" transform="matrix(.1 0 0 -.1 455.012 395.764)">
            <use xlink:href="#DejaVuSans-32"/>
            <use xlink:href="#DejaVuSans-31" x="63.623"/>
            <use xlink:href="#DejaVuSans-35" x="127.246"/>
          </g>
        </g>
        <g id="xtick_15">
          <use xlink:href="#m7f42352c54" id="line2d_15" x="494.922" y="381.166" style="stroke:#000;stroke-width:.8"/>
          <g id="text_15" transform="matrix(.1 0 0 -.1 485.379 395.764)">
            <use xlink:href="#DejaVuSans-32"/>
            <use xlink:href="#DejaVuSans-33" x="63.623"/>
            <use xlink:href="#DejaVuSans-30" x="127.246"/>
          </g>
        </g>
        <g id="xtick_16">
          <use xlink:href="#m7f42352c54" id="line2d_16" x="525.289" y="381.166" style="stroke:#000;stroke-width:.8"/>
          <g id="text_16" transform="matrix(.1 0 0 -.1 515.746 395.764)">
            <use xlink:href="#DejaVuSans-32"/>
            <use xlink:href="#DejaVuSans-34" x="63.623"/>
            <use xlink:href="#DejaVuSans-35" x="127.246"/>
          </g>
        </g>
        <g id="xtick_17">
          <use xlink:href="#m7f42352c54" id="line2d_17" x="555.656" y="381.166" style="stroke:#000;stroke-width:.8"/>
          <g id="text_17" transform="matrix(.1 0 0 -.1 546.112 395.764)">
            <use xlink:href="#DejaVuSans-32"/>
            <use xlink:href="#DejaVuSans-36" x="63.623"/>
            <use xlink:href="#DejaVuSans-30" x="127.246"/>
          </g>
        </g>
        <g id="text_18" transform="matrix(.2 0 0 -.2 278.62 417.04)">
          <defs>
            <path id="Cmr10-41" d="M206 0v225q572 0 703 378l1344 3910q19 68 103 68h82q84 0 103-68L3944 428q59-134 226-169 168-34 418-34V0H2803v225q531 0 531 172v31l-346 1000H1434l-287-825q-6-22-6-65 0-160 151-237 152-76 327-76V0H206zm1303 1650h1404l-704 2044-700-2044z" transform="scale(.01563)"/>
            <path id="Cmr10-56" d="M2253-72 744 3944q-56 134-216 168-159 35-406 35v225h1759v-225q-531 0-531-166 3-9 4-17 2-8 2-20L2584 678l1160 3091q12 25 12 78 0 156-144 228-143 72-321 72v225h1381v-225q-241 0-424-89-182-89-260-289L2541-72q-19-69-103-69h-82q-84 0-103 69z" transform="scale(.01563)"/>
            <path id="Cmr10-4f" d="M2491-141q-610 0-1096 323-486 324-761 860T359 2169q0 437 158 865 158 429 441 760t679 525q397 194 854 194 453 0 851-196 399-195 683-530 284-334 437-750 154-415 154-868 0-591-275-1127t-763-860q-487-323-1087-323zM1428 691q188-294 463-468 275-173 600-173 209 0 410 84 202 85 366 232t280 325q381 575 381 1581 0 922-381 1459-188 269-468 431-279 163-588 163-313 0-594-163-281-162-469-431-150-209-233-445-82-236-117-489-34-253-34-525 0-291 32-568 33-276 122-542 90-265 230-471z" transform="scale(.01563)"/>
            <path id="Cmr10-49" d="M166 0v225q690 0 690 203v3516q0 203-690 203v225h1978v-225q-691 0-691-203V428q0-203 691-203V0H166z" transform="scale(.01563)"/>
            <path id="Cmr10-44" d="M213 0v225q659 0 659 203v3516q0 203-659 203v225h2359q437 0 799-189 363-189 619-505 257-315 396-715t139-819q0-406-141-789-140-383-404-691t-625-486Q2994 0 2572 0H213zm1234 428q0-137 78-170t247-33h634q328 0 623 142 296 142 490 396 203 268 271 601 69 333 69 780 0 465-69 815-68 350-271 625-191 272-485 417-293 146-628 146h-634q-116 0-180-10-64-9-105-54-40-45-40-139V428z" transform="scale(.01563)"/>
          </defs>
          <use xlink:href="#Cmr10-41" transform="translate(0 .422)"/>
          <use xlink:href="#Cmr10-56" transform="translate(75 .422)"/>
          <use xlink:href="#Cmr10-4f" transform="translate(150 .422)"/>
          <use xlink:href="#Cmr10-49" transform="translate(227.686 .422)"/>
          <use xlink:href="#Cmr10-44" transform="translate(263.77 .422)"/>
        </g>
      </g>
      <g id="matplotlib.axis_2">
        <g id="ytick_1">
          <g id="line2d_18">
            <defs>
              <path id="m1491d49228" d="M0 0h-3.5" style="stroke:#000;stroke-width:.8"/>
            </defs>
            <use xlink:href="#m1491d49228" x="69.784" y="381.166" style="stroke:#000;stroke-width:.8"/>
          </g>
          <g id="text_19" transform="matrix(.1 0 0 -.1 34.156 384.965)">
            <defs>
              <path id="DejaVuSans-2e" d="M684 794h660V0H684v794z" transform="scale(.01563)"/>
            </defs>
            <use xlink:href="#DejaVuSans-30"/>
            <use xlink:href="#DejaVuSans-2e" x="63.623"/>
            <use xlink:href="#DejaVuSans-30" x="95.41"/>
            <use xlink:href="#DejaVuSans-30" x="159.033"/>
            <use xlink:href="#DejaVuSans-30" x="222.656"/>
          </g>
        </g>
        <g id="ytick_2">
          <use xlink:href="#m1491d49228" id="line2d_19" x="69.784" y="335.345" style="stroke:#000;stroke-width:.8"/>
          <g id="text_20" transform="matrix(.1 0 0 -.1 34.156 339.144)">
            <use xlink:href="#DejaVuSans-30"/>
            <use xlink:href="#DejaVuSans-2e" x="63.623"/>
            <use xlink:href="#DejaVuSans-31" x="95.41"/>
            <use xlink:href="#DejaVuSans-32" x="159.033"/>
            <use xlink:href="#DejaVuSans-35" x="222.656"/>
          </g>
        </g>
        <g id="ytick_3">
          <use xlink:href="#m1491d49228" id="line2d_20" x="69.784" y="289.524" style="stroke:#000;stroke-width:.8"/>
          <g id="text_21" transform="matrix(.1 0 0 -.1 34.156 293.323)">
            <use xlink:href="#DejaVuSans-30"/>
            <use xlink:href="#DejaVuSans-2e" x="63.623"/>
            <use xlink:href="#DejaVuSans-32" x="95.41"/>
            <use xlink:href="#DejaVuSans-35" x="159.033"/>
            <use xlink:href="#DejaVuSans-30" x="222.656"/>
          </g>
        </g>
        <g id="ytick_4">
          <use xlink:href="#m1491d49228" id="line2d_21" x="69.784" y="243.703" style="stroke:#000;stroke-width:.8"/>
          <g id="text_22" transform="matrix(.1 0 0 -.1 34.156 247.502)">
            <use xlink:href="#DejaVuSans-30"/>
            <use xlink:href="#DejaVuSans-2e" x="63.623"/>
            <use xlink:href="#DejaVuSans-33" x="95.41"/>
            <use xlink:href="#DejaVuSans-37" x="159.033"/>
            <use xlink:href="#DejaVuSans-35" x="222.656"/>
          </g>
        </g>
        <g id="ytick_5">
          <use xlink:href="#m1491d49228" id="line2d_22" x="69.784" y="197.882" style="stroke:#000;stroke-width:.8"/>
          <g id="text_23" transform="matrix(.1 0 0 -.1 34.156 201.682)">
            <use xlink:href="#DejaVuSans-30"/>
            <use xlink:href="#DejaVuSans-2e" x="63.623"/>
            <use xlink:href="#DejaVuSans-35" x="95.41"/>
            <use xlink:href="#DejaVuSans-30" x="159.033"/>
            <use xlink:href="#DejaVuSans-30" x="222.656"/>
          </g>
        </g>
        <g id="ytick_6">
          <use xlink:href="#m1491d49228" id="line2d_23" x="69.784" y="152.062" style="stroke:#000;stroke-width:.8"/>
          <g id="text_24" transform="matrix(.1 0 0 -.1 34.156 155.86)">
            <use xlink:href="#DejaVuSans-30"/>
            <use xlink:href="#DejaVuSans-2e" x="63.623"/>
            <use xlink:href="#DejaVuSans-36" x="95.41"/>
            <use xlink:href="#DejaVuSans-32" x="159.033"/>
            <use xlink:href="#DejaVuSans-35" x="222.656"/>
          </g>
        </g>
        <g id="ytick_7">
          <use xlink:href="#m1491d49228" id="line2d_24" x="69.784" y="106.241" style="stroke:#000;stroke-width:.8"/>
          <g id="text_25" transform="matrix(.1 0 0 -.1 34.156 110.04)">
            <use xlink:href="#DejaVuSans-30"/>
            <use xlink:href="#DejaVuSans-2e" x="63.623"/>
            <use xlink:href="#DejaVuSans-37" x="95.41"/>
            <use xlink:href="#DejaVuSans-35" x="159.033"/>
            <use xlink:href="#DejaVuSans-30" x="222.656"/>
          </g>
        </g>
        <g id="ytick_8">
          <use xlink:href="#m1491d49228" id="line2d_25" x="69.784" y="60.42" style="stroke:#000;stroke-width:.8"/>
          <g id="text_26" transform="matrix(.1 0 0 -.1 34.156 64.22)">
            <use xlink:href="#DejaVuSans-30"/>
            <use xlink:href="#DejaVuSans-2e" x="63.623"/>
            <use xlink:href="#DejaVuSans-38" x="95.41"/>
            <use xlink:href="#DejaVuSans-37" x="159.033"/>
            <use xlink:href="#DejaVuSans-35" x="222.656"/>
          </g>
        </g>
        <g id="ytick_9">
          <use xlink:href="#m1491d49228" id="line2d_26" x="69.784" y="14.599" style="stroke:#000;stroke-width:.8"/>
          <g id="text_27" transform="matrix(.1 0 0 -.1 34.156 18.398)">
            <use xlink:href="#DejaVuSans-31"/>
            <use xlink:href="#DejaVuSans-2e" x="63.623"/>
            <use xlink:href="#DejaVuSans-30" x="95.41"/>
            <use xlink:href="#DejaVuSans-30" x="159.033"/>
            <use xlink:href="#DejaVuSans-30" x="222.656"/>
          </g>
        </g>
        <g id="text_28" transform="matrix(0 -.2 -.2 0 25.956 298.382)">
          <defs>
            <path id="Cmr10-6d" d="M191 0v225q218 0 359 34 141 35 141 169v1747q0 172-52 248-51 77-148 94t-300 17v225l928 69v-625q128 275 379 450 252 175 549 175 737 0 866-600 128 269 374 434 247 166 541 166 291 0 489-94 199-93 299-286 100-192 100-482V428q0-134 142-169 142-34 358-34V0H3750v225q219 0 359 34 141 35 141 169v1519q0 322-91 519-90 197-371 197-369 0-610-297-240-297-240-675V428q0-134 140-169 141-34 360-34V0H1972v225q219 0 359 34 141 35 141 169v1519q0 312-91 514-90 202-372 202-371 0-611-297-239-297-239-675V428q0-134 141-169 141-34 356-34V0H191z" transform="scale(.01563)"/>
            <path id="Cmr10-61" d="M256 628q0 381 300 620 300 240 720 338 421 98 799 98v263q0 184-81 357-81 174-235 285-153 111-337 111-425 0-647-191 122 0 201-92 80-92 80-214 0-128-91-219-90-90-215-90-128 0-219 90-90 91-90 219 0 338 306 502t675 164q259 0 521-111 263-111 430-318 168-206 168-481V519q0-125 53-230t165-105q107 0 158 106 52 107 52 229v409h187V519q0-144-75-274-75-129-202-206-126-77-273-77-187 0-323 145-136 146-152 346-118-240-350-383-231-142-493-142-244 0-480 72T414 226Q256 381 256 628zm519 0q0-225 165-378 166-153 391-153 207 0 375 103 169 103 269 281t100 375v666q-291 0-596-96-304-95-504-298T775 628z" transform="scale(.01563)"/>
            <path id="Cmr10-67" d="M178-500q0 228 165 399Q509 69 738 141q-129 97-196 243-67 147-67 313 0 300 191 531-294 288-294 660 0 200 86 375t239 303q153 128 340 195 188 67 385 67 381 0 684-222 132 141 311 217 180 77 374 77 137 0 224-99 88-98 88-235 0-78-60-138-59-59-137-59-81 0-141 59-59 60-59 138 0 118 78 165-331 0-568-228 115-115 185-283 71-167 71-332 0-272-150-490-150-217-396-337-245-120-504-120-350 0-641 190-90-125-90-281 0-169 111-296 111-126 279-126h525q382 0 688-69 306-68 514-275 208-206 208-584 0-281-238-467-237-186-567-269t-611-83q-284 0-616 83-331 83-569 269-237 186-237 467zm360 0q0-216 175-361t421-215q247-71 466-71 216 0 462 71 247 70 420 215 174 145 174 361 0 334-306 433-306 98-744 98h-525q-147 0-270-70T613-236q-75-127-75-264zm884 1613q544 0 544 775 0 334-116 551t-428 217q-313 0-429-217-115-217-115-551 0-213 44-385t162-281q119-109 338-109z" transform="scale(.01563)"/>
            <path id="Cmr10-69" d="M197 0v225q219 0 359 34 141 35 141 169v1747q0 247-96 303-95 56-376 56v225l922 69V428q0-134 122-169 122-34 325-34V0H197zm272 3928q0 141 106 247t244 106q90 0 174-47 85-46 132-131 47-84 47-175 0-137-107-244-106-106-246-106-138 0-244 106-106 107-106 244z" transform="scale(.01563)"/>
            <path id="Cmr10-63" d="M1594-72q-388 0-704 201-315 202-496 538t-181 714q0 378 179 725 180 347 497 555t705 208q375 0 682-147 308-147 308-481 0-125-89-218-89-92-217-92t-217 92q-89 93-89 218 0 112 72 195t178 105q-222 140-622 140-306 0-494-203-187-203-262-503t-75-594q0-309 92-598t297-478q205-189 514-189 303 0 515 186 213 186 291 486 0 37 50 37h78q19 0 34-17 16-17 16-39v-19q-97-378-385-600-287-222-677-222z" transform="scale(.01563)"/>
            <path id="Cmr10-6c" d="M197 0v225q219 0 359 34 141 35 141 169v3360q0 171-52 248-51 77-148 94t-300 17v225l950 69V428q0-134 140-169 141-34 357-34V0H197z" transform="scale(.01563)"/>
            <path id="Cmr10-64" d="M1563-72q-379 0-692 205-312 205-485 539t-173 709q0 388 189 720 189 333 514 530t715 197q235 0 444-99 209-98 363-273v1332q0 171-52 248t-147 94q-95 17-298 17v225l947 69V581q0-168 51-245 52-77 147-94t298-17V0l-965-72v403q-166-190-394-297-228-106-462-106zM909 556q110-209 292-334 183-125 399-125 266 0 487 153 222 153 332 397v1534q-75 141-189 252t-257 170q-142 60-301 60-334 0-538-190-203-189-284-483-81-293-81-615 0-256 26-447 27-190 114-372z" transform="scale(.01563)"/>
            <path id="Cmr10-6f" d="M1600-72q-384 0-713 195-328 196-519 524-190 328-190 716 0 293 105 565t300 486q195 214 454 334 260 121 563 121 394 0 717-208 324-208 511-557 188-348 188-741 0-385-191-715-191-329-518-525-326-195-707-195zm0 188q513 0 684 371 172 372 172 947 0 322-34 533t-150 383q-72 106-183 186t-235 122q-123 42-254 42-200 0-380-91-179-90-298-259-119-181-152-399-32-217-32-517 0-359 62-645 63-286 252-480 189-193 548-193z" transform="scale(.01563)"/>
            <path id="Cmr10-65" d="M1594-72q-391 0-718 205-326 205-512 547t-186 723q0 375 170 712 171 338 475 546 305 208 680 208 294 0 511-99 217-98 358-273t212-413q72-237 72-521 0-85-65-85H738v-69q0-531 214-912t698-381q197 0 364 87 167 88 290 244 124 156 168 334 6 22 23 39 18 18 39 18h57q65 0 65-82-90-362-390-595T1594-72zM744 1638h1459q0 240-67 487t-224 411q-156 164-409 164-362 0-561-339-198-339-198-723z" transform="scale(.01563)"/>
            <path id="Cmsy10-a1" d="M653 1472q-53 0-88 40-34 41-34 88t34 87q35 41 88 41h3672q50 0 83-41 33-40 33-87t-33-88q-33-40-83-40H653z" transform="scale(.01563)"/>
            <path id="Cmr10-68" d="M191 0v225q218 0 359 34 141 35 141 169v3360q0 171-52 248-51 77-148 94t-300 17v225l950 69V2241q134 265 374 426 241 161 532 161 444 0 667-213 224-212 224-649V428q0-134 140-169 141-34 360-34V0H1972v225q219 0 359 34 141 35 141 169v1519q0 312-91 514-90 202-372 202-371 0-611-297-239-297-239-675V428q0-134 141-169 141-34 356-34V0H191z" transform="scale(.01563)"/>
            <path id="Cmr10-6e" d="M191 0v225q218 0 359 34 141 35 141 169v1747q0 172-52 248-51 77-148 94t-300 17v225l928 69v-625q128 275 379 450 252 175 549 175 444 0 667-213 224-212 224-649V428q0-134 140-169 141-34 360-34V0H1972v225q219 0 359 34 141 35 141 169v1519q0 312-91 514-90 202-372 202-371 0-611-297-239-297-239-675V428q0-134 141-169 141-34 356-34V0H191z" transform="scale(.01563)"/>
          </defs>
          <use xlink:href="#Cmr10-6d" transform="translate(0 .61)"/>
          <use xlink:href="#Cmr10-61" transform="translate(83.3 .61)"/>
          <use xlink:href="#Cmr10-67" transform="translate(133.3 .61)"/>
          <use xlink:href="#Cmr10-69" transform="translate(183.3 .61)"/>
          <use xlink:href="#Cmr10-63" transform="translate(210.986 .61)"/>
          <use xlink:href="#Cmr10-61" transform="translate(255.371 .61)"/>
          <use xlink:href="#Cmr10-6c" transform="translate(305.371 .61)"/>
          <use xlink:href="#Cmr10-64" transform="translate(376.953 .61)"/>
          <use xlink:href="#Cmr10-6f" transform="translate(432.47 .61)"/>
          <use xlink:href="#Cmr10-64" transform="translate(482.47 .61)"/>
          <use xlink:href="#Cmr10-67" transform="translate(537.988 .61)"/>
          <use xlink:href="#Cmr10-65" transform="translate(587.988 .61)"/>
          <use xlink:href="#Cmsy10-a1" transform="translate(632.373 .61)"/>
          <use xlink:href="#Cmr10-63" transform="translate(710.059 .61)"/>
          <use xlink:href="#Cmr10-68" transform="translate(754.443 .61)"/>
          <use xlink:href="#Cmr10-61" transform="translate(809.96 .61)"/>
          <use xlink:href="#Cmr10-6e" transform="translate(859.96 .61)"/>
          <use xlink:href="#Cmr10-63" transform="translate(915.479 .61)"/>
          <use xlink:href="#Cmr10-65" transform="translate(959.863 .61)"/>
        </g>
      </g>
      <path id="line2d_27" d="M69.784 381.166h101.224l4.049-11.314 4.049-10.702 4.048-10.14 4.05-9.618 4.048-9.138 4.05-8.693 4.048-8.278 4.05-7.893 4.048-7.535 4.049-7.2 4.049-6.886 6.073-9.787 6.074-9.187 6.073-8.641 6.074-8.143 6.073-7.686 6.073-7.267 6.074-6.881 6.073-6.525 6.074-6.196 6.073-5.892 6.073-5.609 6.074-5.345 6.073-5.101 6.074-4.873 8.097-6.167 8.098-5.82 8.098-5.5 8.098-5.208 8.098-4.937 8.098-4.687 8.098-4.455 8.097-4.241 10.123-5.022 10.122-4.737 10.122-4.475 10.123-4.234 10.122-4.013 12.147-4.546 12.147-4.277 12.146-4.032 12.147-3.807 12.147-3.6 14.171-3.961 14.172-3.725 14.17-3.51 16.197-3.77 16.195-3.536 4.05-.85h0" clip-path="url(#p5991885f19)" style="fill:none;stroke:#1f77b4;stroke-width:1.5;stroke-linecap:square"/>
      <path id="line2d_28" d="M69.784 381.166h161.958l6.073-11.863 6.073-11.192 6.074-10.575 6.073-10.01 6.074-9.486 6.073-9.004 6.073-8.558 6.074-8.144 6.073-7.759 6.074-7.4 6.073-7.068 6.073-6.755 6.074-6.464 6.073-6.19 6.074-5.935 6.073-5.693 8.098-7.242 8.098-6.871 8.098-6.527 8.098-6.21 8.097-5.912 8.098-5.638 8.098-5.382 8.098-5.143 8.098-4.919 10.122-5.856 10.122-5.554 10.123-5.275 10.122-5.016 10.122-4.777 10.123-4.553 12.147-5.19 12.146-4.916 12.147-4.66 12.147-4.427 12.147-4.208 14.171-4.655 14.171-4.403 4.05-1.214h0" clip-path="url(#p5991885f19)" style="fill:none;stroke:#ff7f0e;stroke-width:1.5;stroke-linecap:square"/>
      <path id="line2d_29" d="M69.784 381.166h313.793l8.097-9.102 8.098-8.704 8.098-8.331 8.098-7.982 8.098-7.655 8.098-7.348 8.098-7.057 8.098-6.785 8.097-6.528 8.098-6.284 8.098-6.056 10.122-7.264 10.123-6.948 10.122-6.65 10.122-6.373 10.123-6.111 10.122-5.866 10.122-5.635 10.123-5.417 2.024-1.059h0" clip-path="url(#p5991885f19)" style="fill:none;stroke:#2ca02c;stroke-width:1.5;stroke-linecap:square"/>
      <path id="line2d_30" d="M69.784 381.166h425.138l8.098-6.963 10.122-8.375 10.123-8.032 10.122-7.71 10.122-7.405 10.123-7.12 2.024-1.391h0" clip-path="url(#p5991885f19)" style="fill:none;stroke:#d62728;stroke-width:1.5;stroke-linecap:square"/>
      <path id="LineCollection_1" d="M187.203 381.166v-41.774m89.077 41.774V207.564m32.391 173.602V180.469m196.374 200.697V95.192" clip-path="url(#p5991885f19)" style="fill:none;stroke-dasharray:1.5,2.475;stroke-dashoffset:0;stroke:#000;stroke-opacity:.501961;stroke-width:1.5"/>
      <path id="patch_3" d="M69.784 381.166V14.599" style="fill:none;stroke:#000;stroke-width:.8;stroke-linejoin:miter;stroke-linecap:square"/>
      <path id="patch_4" d="M555.656 381.166V14.599" style="fill:none"/>
      <path id="patch_5" d="M69.784 381.166h485.872" style="fill:none;stroke:#000;stroke-width:.8;stroke-linejoin:miter;stroke-linecap:square"/>
      <path id="patch_6" d="M69.784 14.6h485.872" style="fill:none"/>
      <g id="text_29" transform="matrix(.1 0 0 -.1 62.226 378.427)">
        <defs>
          <path id="DejaVuSans-77" d="M269 3500h575l719-2731 715 2731h678l719-2731 716 2731h575L4050 0h-678l-753 2869L1863 0h-679L269 3500z" transform="scale(.01563)"/>
          <path id="DejaVuSans-61" d="M2194 1759q-697 0-966-159t-269-544q0-306 202-486 202-179 548-179 479 0 768 339t289 901v128h-572zm1147 238V0h-575v531q-197-318-491-470T1556-91q-537 0-855 302-317 302-317 808 0 590 395 890 396 300 1180 300h807v57q0 397-261 614t-733 217q-300 0-585-72-284-72-546-216v532q315 122 612 182 297 61 578 61 760 0 1135-394 375-393 375-1193z" transform="scale(.01563)"/>
          <path id="DejaVuSans-72" d="M2631 2963q-97 56-211 82-114 27-251 27-488 0-749-317t-261-911V0H581v3500h578v-544q182 319 472 473 291 155 707 155 59 0 131-8 72-7 159-23l3-590z" transform="scale(.01563)"/>
          <path id="DejaVuSans-69" d="M603 3500h575V0H603v3500zm0 1363h575v-729H603v729z" transform="scale(.01563)"/>
          <path id="DejaVuSans-6f" d="M1959 3097q-462 0-731-361t-269-989q0-628 267-989 268-361 733-361 460 0 728 362 269 363 269 988 0 622-269 986-268 364-728 364zm0 487q750 0 1178-488 429-487 429-1349 0-859-429-1349Q2709-91 1959-91q-753 0-1180 489-426 490-426 1349 0 862 426 1349 427 488 1180 488z" transform="scale(.01563)"/>
        </defs>
        <use xlink:href="#DejaVuSans-77"/>
        <use xlink:href="#DejaVuSans-61" x="81.787"/>
        <use xlink:href="#DejaVuSans-72" x="143.066"/>
        <use xlink:href="#DejaVuSans-72" x="182.43"/>
        <use xlink:href="#DejaVuSans-69" x="223.543"/>
        <use xlink:href="#DejaVuSans-6f" x="251.326"/>
        <use xlink:href="#DejaVuSans-72" x="312.508"/>
      </g>
      <g id="text_30" transform="matrix(.1 0 0 -.1 106.112 378.427)">
        <defs>
          <path id="DejaVuSans-7a" d="M353 3500h2731v-525L922 459h2162V0H275v525l2163 2516H353v459z" transform="scale(.01563)"/>
          <path id="DejaVuSans-64" d="M2906 2969v1894h575V0h-575v525q-181-312-458-464-276-152-664-152-634 0-1033 506-398 507-398 1332t398 1331q399 506 1033 506 388 0 664-152 277-151 458-463zM947 1747q0-634 261-995t717-361q456 0 718 361 263 361 263 995t-263 995q-262 361-718 361t-717-361q-261-361-261-995z" transform="scale(.01563)"/>
        </defs>
        <use xlink:href="#DejaVuSans-77"/>
        <use xlink:href="#DejaVuSans-69" x="81.787"/>
        <use xlink:href="#DejaVuSans-7a" x="109.57"/>
        <use xlink:href="#DejaVuSans-61" x="162.061"/>
        <use xlink:href="#DejaVuSans-72" x="223.34"/>
        <use xlink:href="#DejaVuSans-64" x="262.703"/>
      </g>
      <g id="text_31" transform="matrix(.1 0 0 -.1 160.834 336.653)">
        <defs>
          <path id="DejaVuSans-67" d="M2906 1791q0 625-258 968-257 344-723 344-462 0-720-344-258-343-258-968 0-622 258-966t720-344q466 0 723 344 258 344 258 966zm575-1357q0-893-397-1329-396-436-1215-436-303 0-572 45t-522 139v559q253-137 500-202 247-66 503-66 566 0 847 295t281 892v285q-178-310-456-463T1784 0Q1141 0 747 490 353 981 353 1791q0 812 394 1302 394 491 1037 491 388 0 666-153t456-462v531h575V434z" transform="scale(.01563)"/>
          <path id="DejaVuSans-75" d="M544 1381v2119h575V1403q0-497 193-746 194-248 582-248 465 0 735 297 271 297 271 810v1984h575V0h-575v538q-209-319-486-474-276-155-642-155-603 0-916 375-312 375-312 1097zm1447 2203z" transform="scale(.01563)"/>
          <path id="DejaVuSans-6e" d="M3513 2113V0h-575v2094q0 497-194 743-194 247-581 247-466 0-735-297-269-296-269-809V0H581v3500h578v-544q207 316 486 472 280 156 646 156 603 0 912-373 310-373 310-1098z" transform="scale(.01563)"/>
          <path id="DejaVuSans-73" d="M2834 3397v-544q-243 125-506 187-262 63-544 63-428 0-642-131t-214-394q0-200 153-314t616-217l197-44q612-131 870-370t258-667q0-488-386-773Q2250-91 1575-91q-281 0-586 55T347 128v594q319-166 628-249 309-82 613-82 406 0 624 139 219 139 219 392 0 234-158 359-157 125-692 241l-200 47q-534 112-772 345-237 233-237 639 0 494 350 762 350 269 994 269 318 0 599-47 282-46 519-140z" transform="scale(.01563)"/>
          <path id="DejaVuSans-6c" d="M603 4863h575V0H603v4863z" transform="scale(.01563)"/>
          <path id="DejaVuSans-65" d="M3597 1894v-281H953q38-594 358-905t892-311q331 0 642 81t618 244V178Q3153 47 2828-22t-659-69q-838 0-1327 487-489 488-489 1320 0 859 464 1363 464 505 1252 505 706 0 1117-455 411-454 411-1235zm-575 169q-6 471-264 752-258 282-683 282-481 0-770-272t-333-766l2050 4z" transform="scale(.01563)"/>
        </defs>
        <use xlink:href="#DejaVuSans-67"/>
        <use xlink:href="#DejaVuSans-75" x="63.477"/>
        <use xlink:href="#DejaVuSans-6e" x="126.855"/>
        <use xlink:href="#DejaVuSans-73" x="190.234"/>
        <use xlink:href="#DejaVuSans-6c" x="242.334"/>
        <use xlink:href="#DejaVuSans-69" x="270.117"/>
        <use xlink:href="#DejaVuSans-6e" x="297.9"/>
        <use xlink:href="#DejaVuSans-67" x="361.279"/>
        <use xlink:href="#DejaVuSans-65" x="424.756"/>
        <use xlink:href="#DejaVuSans-72" x="486.279"/>
      </g>
      <g id="text_32" transform="matrix(.1 0 0 -.1 259.681 204.825)">
        <defs>
          <path id="DejaVuSans-68" d="M3513 2113V0h-575v2094q0 497-194 743-194 247-581 247-466 0-735-297-269-296-269-809V0H581v4863h578V2956q207 316 486 472 280 156 646 156 603 0 912-373 310-373 310-1098z" transform="scale(.01563)"/>
          <path id="DejaVuSans-74" d="M1172 4494v-994h1184v-447H1172V1153q0-428 117-550t477-122h590V0h-590q-666 0-919 248-253 249-253 905v1900H172v447h422v994h578z" transform="scale(.01563)"/>
        </defs>
        <use xlink:href="#DejaVuSans-68"/>
        <use xlink:href="#DejaVuSans-75" x="63.379"/>
        <use xlink:href="#DejaVuSans-6e" x="126.758"/>
        <use xlink:href="#DejaVuSans-74" x="190.137"/>
        <use xlink:href="#DejaVuSans-65" x="229.346"/>
        <use xlink:href="#DejaVuSans-72" x="290.869"/>
      </g>
      <g id="text_33" transform="matrix(.1 0 0 -.1 289.767 177.73)">
        <defs>
          <path id="DejaVuSans-62" d="M3116 1747q0 634-261 995t-717 361q-457 0-718-361t-261-995q0-634 261-995t718-361q456 0 717 361t261 995zM1159 2969q182 312 458 463 277 152 661 152 638 0 1036-506 399-506 399-1331T3314 415Q2916-91 2278-91q-384 0-661 152-276 152-458 464V0H581v4863h578V2969z" transform="scale(.01563)"/>
        </defs>
        <use xlink:href="#DejaVuSans-62"/>
        <use xlink:href="#DejaVuSans-72" x="63.477"/>
        <use xlink:href="#DejaVuSans-61" x="104.59"/>
        <use xlink:href="#DejaVuSans-77" x="165.869"/>
        <use xlink:href="#DejaVuSans-6c" x="247.656"/>
        <use xlink:href="#DejaVuSans-65" x="275.439"/>
        <use xlink:href="#DejaVuSans-72" x="336.963"/>
      </g>
      <g id="text_34" transform="matrix(.1 0 0 -.1 483.94 92.453)">
        <use xlink:href="#DejaVuSans-61"/>
        <use xlink:href="#DejaVuSans-73" x="61.279"/>
        <use xlink:href="#DejaVuSans-73" x="113.379"/>
        <use xlink:href="#DejaVuSans-61" x="165.479"/>
        <use xlink:href="#DejaVuSans-73" x="226.758"/>
        <use xlink:href="#DejaVuSans-73" x="278.857"/>
        <use xlink:href="#DejaVuSans-69" x="330.957"/>
        <use xlink:href="#DejaVuSans-6e" x="358.74"/>
      </g>
      <g id="legend_1">
        <path id="line2d_31" d="M85.336 37.233h34.56" style="fill:none;stroke:#1f77b4;stroke-width:1.5;stroke-linecap:square"/>
        <g id="text_35" transform="matrix(.1728 0 0 -.1728 133.72 43.281)">
          <defs>
            <path id="Cmr10-43" d="M1459 684q219-278 547-439t682-161q296 0 549 117 254 118 443 327 189 210 290 475 102 266 102 560 0 50 56 50h78q50 0 50-63 0-334-128-645t-363-547Q3531 122 3226-9q-304-132-635-132-460 0-871 186t-716 509q-304 324-475 749-170 425-170 885 0 459 170 884 171 425 475 750 305 325 716 508t871 183q328 0 628-143 300-142 525-401l372 525q37 19 43 19h47q19 0 34-16 16-16 16-38V2731q0-56-50-56h-115q-60 0-60 56 0 185-74 413-73 228-187 432-114 205-264 362-359 350-825 350-353 0-677-160-323-159-545-440-234-300-325-683-90-383-90-817 0-435 90-820 91-384 325-684z" transform="scale(.01563)"/>
            <path id="Cmr10-3d" d="M481 850q-53 0-88 40-34 41-34 88 0 53 34 90 35 38 88 38h4019q47 0 81-38 35-37 35-90 0-47-35-88-34-40-81-40H481zm0 1244q-53 0-88 37-34 38-34 91 0 47 34 87 35 41 88 41h4019q47 0 81-41 35-40 35-87 0-53-35-91-34-37-81-37H481z" transform="scale(.01563)"/>
            <path id="Cmr10-37" d="M1113 166q0 356 62 696 63 341 183 674t290 653q171 320 374 602l584 812h-731q-1137 0-1172-31-84-103-159-591H359l210 1344h187v-19q0-115 391-150 391-34 766-34h1190v-166q0-6-2-9-1-3-4-9l-881-1238q-325-481-407-1069-81-587-81-1465 0-125-91-216-90-91-215-91-128 0-219 91-90 91-90 216z" transform="scale(.01563)"/>
            <path id="Cmr10-30" d="M1600-141q-784 0-1067 645-283 646-283 1537 0 556 101 1046 102 491 403 833 302 343 846 343 422 0 690-207 269-206 410-533 141-326 192-700 52-373 52-782 0-550-102-1030-101-480-398-816t-844-336zm0 166q356 0 531 365 175 366 216 810t41 944q0 481-41 887-41 407-215 736-173 330-532 330-362 0-537-332-175-331-216-736-41-404-41-885 0-356 17-672 18-316 93-652t242-566q167-229 442-229z" transform="scale(.01563)"/>
          </defs>
          <use xlink:href="#Cmr10-41" transform="translate(0 .422)"/>
          <use xlink:href="#Cmr10-43" transform="translate(75 .422)"/>
          <use xlink:href="#Cmr10-43" transform="translate(147.217 .422)"/>
          <use xlink:href="#Cmr10-3d" transform="translate(236.992 .422)"/>
          <use xlink:href="#Cmr10-37" transform="translate(381.01 .422)"/>
          <use xlink:href="#Cmr10-30" transform="translate(431.01 .422)"/>
        </g>
        <path id="line2d_32" d="M85.336 62.597h34.56" style="fill:none;stroke:#ff7f0e;stroke-width:1.5;stroke-linecap:square"/>
        <g id="text_36" transform="matrix(.1728 0 0 -.1728 133.72 68.645)">
          <defs>
            <path id="Cmr10-31" d="M594 0v225q800 0 800 203v3360q-331-160-838-160v225q785 0 1185 410h90q22 0 42-18 21-17 21-39V428q0-203 800-203V0H594z" transform="scale(.01563)"/>
          </defs>
          <use xlink:href="#Cmr10-41" transform="translate(0 .422)"/>
          <use xlink:href="#Cmr10-43" transform="translate(75 .422)"/>
          <use xlink:href="#Cmr10-43" transform="translate(147.217 .422)"/>
          <use xlink:href="#Cmr10-3d" transform="translate(236.992 .422)"/>
          <use xlink:href="#Cmr10-31" transform="translate(332.236 .422)"/>
          <use xlink:href="#Cmr10-30" transform="translate(382.236 .422)"/>
          <use xlink:href="#Cmr10-30" transform="translate(432.236 .422)"/>
        </g>
        <path id="line2d_33" d="M85.336 87.96h34.56" style="fill:none;stroke:#2ca02c;stroke-width:1.5;stroke-linecap:square"/>
        <g id="text_37" transform="matrix(.1728 0 0 -.1728 133.72 94.009)">
          <defs>
            <path id="Cmr10-35" d="M556 728q66-187 202-341 136-153 322-239 186-85 386-85 462 0 637 359t175 872q0 222-8 373-7 152-42 292-59 225-208 394-148 169-364 169-215 0-370-66-155-65-252-153-96-87-171-184t-94-103h-72q-16 0-40 20-23 20-23 39v2138q0 15 20 32 21 18 43 18h19q431-207 915-207 475 0 916 207h19q22 0 40-16 19-16 19-34v-60q0-31-12-31-219-291-549-454-330-162-683-162-256 0-525 72V2369q213 172 380 245 167 74 427 74 353 0 632-204 280-203 430-530 150-326 150-666 0-385-189-713T2172 53q-325-194-706-194-316 0-580 162-264 163-416 438-151 275-151 585 0 144 93 234 94 91 235 91t236-93q95-92 95-232 0-138-95-233t-236-95q-22 0-50 4-28 5-41 8z" transform="scale(.01563)"/>
          </defs>
          <use xlink:href="#Cmr10-41" transform="translate(0 .422)"/>
          <use xlink:href="#Cmr10-43" transform="translate(75 .422)"/>
          <use xlink:href="#Cmr10-43" transform="translate(147.217 .422)"/>
          <use xlink:href="#Cmr10-3d" transform="translate(236.992 .422)"/>
          <use xlink:href="#Cmr10-31" transform="translate(332.236 .422)"/>
          <use xlink:href="#Cmr10-37" transform="translate(382.236 .422)"/>
          <use xlink:href="#Cmr10-35" transform="translate(432.236 .422)"/>
        </g>
        <path id="line2d_34" d="M85.336 113.325h34.56" style="fill:none;stroke:#d62728;stroke-width:1.5;stroke-linecap:square"/>
        <g id="text_38" transform="matrix(.1728 0 0 -.1728 133.72 119.373)">
          <defs>
            <path id="Cmr10-32" d="M319 0v172q0 16 12 34l994 1100q225 244 365 409 141 166 278 382 138 216 218 439t80 473q0 263-97 502t-289 383q-192 144-464 144-278 0-500-168-222-167-313-432 25 6 69 6 144 0 245-97 102-97 102-250 0-147-102-249-101-101-245-101-150 0-252 104-101 105-101 246 0 241 90 451 91 211 261 375 171 165 385 252 214 88 454 88 366 0 681-155 316-155 500-438 185-282 185-661 0-278-122-528t-313-455q-190-204-487-464-297-259-390-346L838 519h615q453 0 758 7 305 8 323 24 75 81 154 591h187L2694 0H319z" transform="scale(.01563)"/>
            <path id="Cmr10-33" d="M609 494q150-219 403-325 254-106 544-106 372 0 528 317 157 317 157 720 0 181-33 362-33 182-111 338t-214 250q-136 94-333 94h-425q-56 0-56 59v56q0 50 56 50l353 29q225 0 373 168 149 169 218 411t69 461q0 306-144 503t-438 197q-243 0-465-92t-353-280q12 3 21 5 10 2 22 2 144 0 241-100t97-241q0-138-97-238t-241-100q-140 0-240 100t-100 238q0 275 165 478 166 203 427 308t523 105q194 0 409-58 216-58 391-166t286-277q111-168 111-384 0-269-120-497t-330-394q-209-165-459-246 278-53 528-210 250-156 401-400 152-243 152-525 0-353-194-639-193-286-509-447t-666-161q-300 0-602 115Q653 88 461 316T269 863q0 159 106 265t266 106q103 0 189-48t134-136q49-87 49-187 0-157-110-263-109-106-262-106h-32z" transform="scale(.01563)"/>
          </defs>
          <use xlink:href="#Cmr10-41" transform="translate(0 .422)"/>
          <use xlink:href="#Cmr10-43" transform="translate(75 .422)"/>
          <use xlink:href="#Cmr10-43" transform="translate(147.217 .422)"/>
          <use xlink:href="#Cmr10-3d" transform="translate(236.992 .422)"/>
          <use xlink:href="#Cmr10-32" transform="translate(332.236 .422)"/>
          <use xlink:href="#Cmr10-33" transform="translate(382.236 .422)"/>
          <use xlink:href="#Cmr10-30" transform="translate(432.236 .422)"/>
        </g>
      </g>
    </g>
  </g>
  <defs>
    <clipPath id="p5991885f19">
      <path d="M69.784 14.599h485.872v366.566H69.784z"/>
    </clipPath>
  </defs>
</svg>
