<svg xmlns="http://www.w3.org/2000/svg" width="2550.729" height="604.265" version="1.2">
  <path fill="none" stroke="#000" stroke-linejoin="bevel" stroke-width="2.73" d="M310.347 93.044h2240.382m-2240.382 24.8h2240.382m-2240.382 24.8h2240.382m-2240.382 24.8h2240.382m-2240.382 24.8h2240.382M310.347 449.242h2240.382M310.347 474.045h2240.382m-2240.382 24.8h2240.382m-2240.382 24.8h2240.382m-2240.382 24.8h2240.382" class="StaffLines"/>
  <path d="M84 160.144h16.797c4.453 0 7.86-.703 10.5-2.203 5.047-2.844 7.86-8.547 7.86-16.047 0-6.906-2.5-12.297-7.11-15.297-2.75-1.75-6.453-2.562-12.156-2.562H84v2.359h.954c2.796.047 3.75.203 4.14.703.297.438.297.547.297 3.094v23.797c0 2.562 0 2.656-.297 3.109-.39.5-1.344.641-4.14.703H84v2.344m13.844-2.344c-2.547 0-2.844-.312-2.844-2.75v-25.859c0-2.453.344-2.797 2.844-2.797h2.61c8.546 0 12.093 4.641 12.093 15.703 0 11.203-3.203 15.703-11.297 15.703h-3.406m33.5-20.953-8.859.547v2.156h2.047c1.906.047 2.156.344 2.156 2.5v14.297c-.047.75-.094 1.047-.297 1.297-.359.453-1.359.656-3.5.703h-.203v1.797h13.344v-1.797h-.891c-3.359-.109-3.797-.359-3.797-2.156v-2.703c.047-8.391 3.047-14.797 6.938-15-.688.812-.891 1.312-.891 2.25 0 1.609 1.141 2.75 2.75 2.75 1.844 0 3.047-1.344 3.047-3.344 0-2.453-1.703-4.047-4.344-4.047-3.156 0-5.859 2.5-7.5 6.953v-6.203m33.781 23.641 9.11-.344v-2.156h-1.25c-2.906-.094-3.156-.391-3.156-3.641v-17.5l-9.391.547v2.156h2.547c1.89.047 2.14.344 2.14 2.5v6.141c0 4.359-1.046 9.656-6.546 9.656-1.547 0-2.844-.547-3.5-1.547-.641-.953-.75-1.453-.75-4.203v-15.25l-8.75.547v2.156h1.906c1.89.047 2.14.344 2.14 2.5v10.797c0 2.547.204 3.703.954 4.844 1.359 2.047 3.75 3.203 6.75 3.203 3.296 0 5.609-1.344 7.796-4.547v4.141m20-23.641-8.89.547v2.156h2.047c1.89.047 2.14.344 2.14 2.5v14.297c-.047.75-.093 1.047-.297 1.297-.343.453-1.296.656-3.453.703h-.187v1.797h12.594v-1.797h-.204c-3.296-.109-3.75-.359-3.75-2.203v-9.25c0-4.453 2.454-7.75 5.704-7.75 2.843 0 4.296 2.047 4.296 6.094v11.156c-.046.656-.093 1-.343 1.25-.297.453-1.297.656-3.453.703h-.204v1.797h12.657v-1.797h-.203c-3.297-.109-3.75-.359-3.75-2.156v-8.844c0-5 2.25-8.203 5.75-8.203 2.859 0 4.25 2.156 4.25 6.656v10.547c-.047.703-.094 1.047-.344 1.297-.297.453-1.297.656-3.453.703h-.203v1.797h12.656v-1.797h-.203c-3.297-.109-3.75-.359-3.75-2.203V144.8c0-3.109-.297-4.156-1.594-5.859-1.453-1.844-3.5-2.844-5.906-2.844-3.25 0-5.657 1.547-7.797 5-.86-3-3.563-5-6.906-5-3.047 0-5.25 1.453-7.204 4.594v-3.844m53.891-.547h-1.75l-1.453 1.797c-1.797-1.406-3.594-2-6.094-2-4.406 0-7.297 2.844-7.297 7.25 0 4.703 3.047 5.891 7.047 6.844l2.641.609c3.953.938 5.359 1.938 5.359 3.938 0 2.359-2.047 4-4.953 4-4.25 0-7.25-2.688-8.453-7.688h-2v9.438h1.75l1.75-2.047c2.047 1.656 4.297 2.453 6.859 2.453 4.891 0 8.141-3.047 8.141-7.703 0-2.203-.703-3.891-2.094-5.047-1.203-1.047-2.203-1.453-5.25-2.094l-2.5-.562c-2.75-.594-2.75-.594-3.656-1.094-1.094-.5-1.75-1.547-1.75-2.656 0-2.047 1.906-3.438 4.656-3.438 4.094 0 6.094 2.891 7.297 6.391h1.75V136.3m26.891 12.594c.047-7.5-4.203-12.797-10.297-12.797-6.406 0-11.203 5.547-11.203 13.047 0 7.047 4.547 11.75 11.297 11.75 4.796 0 8.156-2.344 10.203-7.094l-1.75-.953c-2.047 3.844-4.157 5.344-7.5 5.344-2.547 0-4.407-1.047-5.703-3.297-.891-1.5-1.297-3.25-1.25-6h16.203m-16.157-2.156c0-3.5 1.61-8.5 5.813-8.5 3 0 5 2.656 5 6.703 0 1.406-.453 1.797-2.063 1.797h-8.75m26.594-9.891v-9.906h-2.047c-.5 6.5-2.703 9.797-6.75 10.109v1.938h4.094v12.75c0 3.5.094 4.75.594 5.906.812 2.094 2.812 3.25 5.703 3.25 4.5 0 7.406-3.406 7.406-8.703 0-.297 0-.641-.047-1.141h-2.109c-.141 4.5-1.453 6.797-3.891 6.797-1.156 0-2.156-.609-2.5-1.453-.312-.703-.453-1.953-.453-3.75v-13.656h7.344v-2.141h-7.344M0 516.845h16.797c4.453 0 7.86-.71 10.5-2.21 5.047-2.84 7.86-8.54 7.86-16.04 0-6.91-2.5-12.3-7.11-15.3-2.75-1.75-6.453-2.56-12.156-2.56H0v2.36h.954c2.796.04 3.75.2 4.14.7.297.44.297.55.297 3.09v23.8c0 2.56 0 2.66-.297 3.11-.39.5-1.344.64-4.14.7H0v2.35m13.844-2.35c-2.547 0-2.844-.31-2.844-2.75v-25.86c0-2.45.344-2.79 2.844-2.79h2.61c8.546 0 12.093 4.64 12.093 15.7 0 11.2-3.203 15.7-11.297 15.7h-3.406m36.281-21.7c-6.14 0-10.89 5.45-10.89 12.45 0 6.85 4.797 12.35 10.797 12.35 6 0 10.797-5.5 10.797-12.41 0-6.84-4.797-12.39-10.704-12.39m0 2.14c3.5 0 5.454 3.66 5.454 10.25 0 6.66-1.954 10.25-5.547 10.25-3.594 0-5.547-3.59-5.547-10.19 0-6.81 1.89-10.31 5.64-10.31m32.985 22.25 9.109-.34v-2.16h-1.25c-2.906-.09-3.156-.39-3.156-3.64v-17.5l-9.391.55v2.15h2.547c1.891.05 2.141.35 2.141 2.5v6.14c0 4.36-1.047 9.66-6.547 9.66-1.547 0-2.844-.55-3.5-1.55-.641-.95-.75-1.45-.75-4.2v-15.25l-8.75.55v2.15h1.906c1.891.05 2.141.35 2.141 2.5v10.8c0 2.55.203 3.7.953 4.84 1.359 2.05 3.75 3.21 6.75 3.21 3.297 0 5.609-1.35 7.797-4.55v4.14m18.953-37.2-8.594.56v2.14h1.75c1.891.05 2.141.36 2.141 2.5v19.45c0 6.96-.297 10.75-.891 12.91h1.891l2.453-3.91c2.047 2.71 4.406 3.96 7.5 3.96 6.203 0 10.75-5.3 10.75-12.55 0-7.2-4.203-12.25-10.203-12.25-3.047 0-4.891 1.05-6.797 3.89v-16.7m5.906 15.36c3.75 0 5.844 3.65 5.844 10.2 0 6.34-2.047 9.89-5.703 9.89-3.953 0-6.297-3.64-6.297-9.8 0-6.7 2.156-10.29 6.156-10.29m23.094-15.36-9.25.56v2.14h2.453c1.844.05 2.094.36 2.094 2.5v27.86c-.047.75-.094 1.05-.297 1.3-.359.45-1.297.65-3.453.7h-.344v1.8h12.938v-1.8h-.344c-3.344-.11-3.797-.36-3.797-2.16v-32.9m28.781 25.61c.047-7.5-4.203-12.8-10.297-12.8-6.406 0-11.203 5.55-11.203 13.05 0 7.04 4.547 11.75 11.297 11.75 4.797 0 8.156-2.35 10.203-7.1l-1.75-.95c-2.047 3.84-4.156 5.34-7.5 5.34-2.547 0-4.406-1.04-5.703-3.29-.891-1.5-1.297-3.25-1.25-6h16.203m-16.156-2.16c0-3.5 1.609-8.5 5.812-8.5 3 0 5 2.66 5 6.7 0 1.41-.453 1.8-2.062 1.8h-8.75m33.281-22.7v2.36h.906c2.844.04 3.797.2 4.188.7.312.44.312.55.312 3.09v23.8c0 2.56 0 2.66-.312 3.11-.391.5-1.344.7-4.188.7h-.906v2.35h18.156c8.641 0 13.844-3.66 13.844-9.8 0-5-3.14-7.86-10-9.05 2.406-.5 3.5-.95 4.797-1.9 2.063-1.55 3.313-4 3.313-6.5 0-3.25-2-6.41-4.907-7.66-1.797-.8-4.297-1.2-7.25-1.2h-17.953m11 16.26v-11.4c0-1.96.656-2.46 3.297-2.5h2c4.906 0 8 1.59 8 7.04 0 4.96-2.391 6.86-8.844 6.86h-4.453m0 2.35h4.406c7.641 0 10.454 2.04 10.454 7.54 0 6.71-4.204 7.61-9.86 7.61h-2.094c-2.5 0-3-.5-2.906-3.15v-12m46.188 1.4c0-3.15-.547-4.75-2-5.95-1.641-1.36-4.094-2-7.297-2-5.641 0-9.75 2.64-9.75 6.3 0 1.84 1.156 3.04 2.906 3.04 1.594 0 2.703-1.04 2.703-2.54 0-.66-.25-1.35-.75-2.05-.312-.36-.359-.45-.359-.7 0-1 2-1.91 4.406-1.91 1.594 0 3.344.5 4.141 1.25.953.81 1.312 2 1.312 4.25v1.95c-5.203.91-6.859 1.3-9.312 2.25-4.344 1.61-6.391 3.91-6.391 7.11 0 3.6 2.797 5.85 7.25 5.85 3.453 0 6.547-1.41 8.703-3.96.797 2.55 2.047 3.55 4.391 3.55 2.25 0 4.609-1.44 4.609-2.89 0-.36-.203-.61-.5-.61-.203 0-.406.06-.75.2-.703.3-1 .36-1.406.36-1.406 0-1.906-.9-1.906-3.45v-10.05m-4.688 6.1c0 3-.156 3.7-1 5-1.25 1.84-3.5 3.09-5.703 3.09-2.297 0-3.953-1.64-3.953-3.89 0-2.11 1.047-3.61 3.25-4.66 1.547-.7 3.5-1.2 7.406-1.84v2.3m29.438-13.85h-1.75l-1.453 1.8c-1.797-1.41-3.594-2-6.094-2-4.406 0-7.297 2.84-7.297 7.25 0 4.7 3.047 5.89 7.047 6.84l2.64.61c3.954.94 5.36 1.94 5.36 3.94 0 2.36-2.047 4-4.953 4-4.25 0-7.25-2.69-8.453-7.69h-2v9.44h1.75l1.75-2.05c2.046 1.66 4.296 2.46 6.859 2.46 4.891 0 8.141-3.05 8.141-7.71 0-2.2-.704-3.89-2.094-5.04-1.203-1.05-2.203-1.46-5.25-2.1l-2.5-.56c-2.75-.59-2.75-.59-3.656-1.09-1.094-.5-1.75-1.55-1.75-2.66 0-2.05 1.906-3.44 4.656-3.44 4.094 0 6.094 2.89 7.297 6.39h1.75v-8.39m22.937 0h-1.75l-1.453 1.8c-1.797-1.41-3.594-2-6.094-2-4.406 0-7.297 2.84-7.297 7.25 0 4.7 3.047 5.89 7.047 6.84l2.641.61c3.953.94 5.359 1.94 5.359 3.94 0 2.36-2.047 4-4.953 4-4.25 0-7.25-2.69-8.453-7.69h-2v9.44h1.75l1.75-2.05c2.047 1.66 4.297 2.46 6.859 2.46 4.891 0 8.141-3.05 8.141-7.71 0-2.2-.703-3.89-2.094-5.04-1.203-1.05-2.203-1.46-5.25-2.1l-2.5-.56c-2.75-.59-2.75-.59-3.656-1.09-1.094-.5-1.75-1.55-1.75-2.66 0-2.05 1.906-3.44 4.656-3.44 4.094 0 6.094 2.89 7.297 6.39h1.75v-8.39" class="InstrumentName"/>
  <path fill-rule="evenodd" stroke="#000" stroke-linecap="round" stroke-linejoin="round" stroke-width="1.74" d="M861.489 578.825c29.22 18.73 116.87 18.73 146.09 0-29.22 25.67-116.87 25.67-146.09 0m683.99-37.2c28.06 17.85 112.25 17.85 140.32 0-28.07 24.8-112.26 24.8-140.32 0" class="TieSegment"/>
  <path stroke="#000" stroke-linejoin="bevel" stroke-width="4.46" d="M960.979 91.68v101.928m531.2-101.928v101.928m357.1-101.928v101.928m677.27-101.928v101.928" class="BarLine"/>
  <path stroke="#000" stroke-linejoin="bevel" stroke-width="13.64" d="M2543.909 91.68v101.928" class="BarLine"/>
  <path stroke="#000" stroke-linejoin="bevel" stroke-width="4.46" d="M312.579 91.68v357.562m1536.7-1.364v101.927m677.27-101.927v101.927" class="BarLine"/>
  <path stroke="#000" stroke-linejoin="bevel" stroke-width="13.64" d="M2543.909 447.878v101.927" class="BarLine"/>
  <path stroke="#000" stroke-linejoin="bevel" stroke-width="4.46" d="M312.579 447.878v101.927m1179.6-101.927v101.927m-531.2-101.927v101.927" class="BarLine"/>
  <path d="M1998.1 550.429c.604-.093 1.1-.79 1.1-1.395v-5.844c0-.992-.698-1.394-1.597-1.394l-3.27.697v-14.787h-2.775v15.376l-8.835 1.798v-13.997h-2.774v14.586l-3.875.79c-.589.109-1.085.79-1.085 1.395v5.751c0 1.085.79 1.395 1.69 1.395l3.27-.698v16.369l-3.875.79c-.589.093-1.085.79-1.085 1.395v5.75c0 1.086.79 1.38 1.69 1.38l3.27-.682v14.772h2.774V578.5l8.835-1.783v13.997h2.775v-14.586l3.766-.698c.605-.108 1.101-.79 1.101-1.394v-5.844c0-.992-.698-1.395-1.597-1.395l-3.27.698v-16.369l3.766-.697m-15.376 3.069 8.835-1.783v16.369l-8.835 1.89v-16.476m336.437-27.869c.604-.093 1.1-.79 1.1-1.395v-5.844c0-.992-.697-1.394-1.596-1.394l-3.271.697v-14.787h-2.774v15.376l-8.835 1.798v-13.997h-2.775v14.586l-3.875.79c-.589.109-1.085.79-1.085 1.395v5.751c0 1.085.79 1.395 1.69 1.395l3.27-.698v16.369l-3.875.79c-.589.093-1.085.79-1.085 1.395v5.75c0 1.086.79 1.38 1.69 1.38l3.27-.682v14.772h2.775V553.7l8.835-1.783v13.997h2.774v-14.586l3.767-.698c.604-.108 1.1-.79 1.1-1.394v-5.844c0-.992-.697-1.395-1.596-1.395l-3.271.698v-16.369l3.767-.697m-15.376 3.069 8.835-1.783v16.369l-8.835 1.89v-16.476m-1100.011-20.429c-4.96 0-7.843 3.069-8.339 3.673l.403-31.852c0-.79-.589-1.38-1.395-1.38h-1.178c-.806 0-1.395.59-1.395 1.38l.496 59.628c0 .791.589 1.38 1.395 1.38.186 0 .589-.093.79-.186 8.526-4.278 17.454-12.4 17.454-22.63 0-5.146-2.372-10.013-8.231-10.013m-8.633 27.977.294-19.344c.202-.899 1.69-3.766 5.658-3.766 3.58 0 3.875 3.363 3.875 5.456 0 8.82-3.271 12.493-9.827 17.654m684.393-151.98c-4.96 0-7.843 3.069-8.339 3.673l.403-31.852c0-.79-.589-1.38-1.395-1.38h-1.178c-.806 0-1.395.59-1.395 1.38l.496 59.628c0 .791.589 1.38 1.395 1.38.186 0 .589-.093.79-.186 8.526-4.278 17.454-12.4 17.454-22.63 0-5.146-2.372-10.013-8.231-10.013m-8.633 27.977.294-19.344c.202-.899 1.69-3.766 5.658-3.766 3.58 0 3.875 3.363 3.875 5.456 0 8.82-3.271 12.493-9.827 17.654" class="Accidental" style="stroke-width:.992001"/>
  <path stroke="#000" stroke-linejoin="bevel" stroke-width="3.97" d="M1102.359 399.642h49.59m204.09 0h49.6m-49.6 24.8h49.6m6.2 0h49.59m933.4 0h49.6m-49.6-24.8h49.6m-1342.07 24.8h49.59m1063.08-24.8h49.6m-49.6 24.8h49.6m-370.66 0h49.59m-49.59-24.8h49.59m-1160.446 24.8h49.596m-105.388-24.8h49.592m-49.592 24.8h49.592m381.236 0h49.59" class="LedgerLine"/>
  <path stroke="#000" stroke-linejoin="bevel" stroke-width="2.73" d="M1528.019 93.044v148.8m-132.43-171.715V6.244m-146.02 86.8v-62m201.81 39.085V6.244m751.83 119.834V18.59m154.61 74.454V31.238m-51.87 38.891V6.406m-372.43 119.87V55.844m51.37 70.432V55.844m51.86 37.2v-62m115.09 95.034V24.682m102.74 45.447V12.498m-1112.67 113.778V55.844m55.79 70.432V55.844m1288.05 70.432V49.45m-51.37 76.826V42.137M874.529 93.044v-62m345.03 152.966v57.834m787.19-57.834v57.834M844.529 184.01v57.834m1483.29-57.834v57.834m-291.56 315.031v-82.83m-478.24 45.63v-82.833m-136.14-8.234v70.087m-395.56 58.18v-82.83m-152.29 82.83v-82.83m1081.35-33.037v82.477m-250.84-3.81v-82.833m700.34-33.034v186.817m-128.43-149.617v82.477m-1108.26-94.877v70.087m1159.63 41.51v57.71m-961.73-206.507v101.377M737.365 391.408v101.377m1487.714-88.977v113.787m-321.07-113.787v113.787m-791.61-126.187v101.377m1343.85-51.777v144.767m-1207.18-66.1v-82.833m-455.91-8.234v70.087" class="Stem"/>
  <path d="M1902.649 134.414c0 4.262 3.069 9.02 11.114 9.02 10.307 0 21.126-8.431 21.126-17.158 0-5.859-4.96-9.13-11.114-9.13-9.625 0-21.126 8.138-21.126 17.268M875.405 94.036c.295-.294.496-.589.496-.899 0-.388-.093-.79-.496-.992l-15.283-11.997c-.186-.201-.496-.295-.884-.295-.294 0-.604.094-.79.295l-15.283 11.997c-.294.201-.496.605-.496.899 0 .403.202.698.496.992l15.283 11.811c.186.186.496.294.884.294.294 0 .604-.108.79-.294l15.283-11.811m1078.614 40.378c0 4.262 3.069 9.02 11.114 9.02 10.307 0 21.126-8.431 21.126-17.158 0-5.859-4.96-9.13-11.114-9.13-9.625 0-21.126 8.138-21.126 17.268m352.814-63.287c.295-.202.496-.604.496-.992v-.108c0-.388-.201-.698-.387-.884l-1.194-1.194c-.294-.201-.604-.402-.992-.402-.294 0-.697.108-.899.294l-12.601 10.028-12.695-10.028c-.202-.186-.589-.294-.899-.294-.388 0-.589.201-.883.402l-1.287 1.194c-.202.186-.403.589-.403.992 0 .388.202.79.496.992l12.105 9.517-12.105 9.517c-.294.202-.496.604-.496.992 0 .31.202.698.403.899l1.178 1.287c.201.294.604.402.992.402.31 0 .698-.108.899-.294l12.694-10.028 12.602 10.028c.202.186.605.294.9.294.387 0 .79-.108.991-.402l1.194-1.287c.186-.201.387-.589.387-.899 0-.388-.201-.79-.496-.992l-12.105-9.517 12.105-9.517m148.046 63.287c0 4.262 3.069 9.02 11.114 9.02 10.307 0 21.126-8.431 21.126-17.158 0-5.859-4.96-9.13-11.114-9.13-9.625 0-21.126 8.138-21.126 17.268m-199.426-63.287c.295-.202.496-.604.496-.992v-.108c0-.388-.201-.698-.387-.884l-1.194-1.194c-.294-.201-.604-.402-.992-.402-.294 0-.698.108-.899.294l-12.601 10.028-12.695-10.028c-.202-.186-.589-.294-.899-.294-.388 0-.589.201-.884.402l-1.286 1.194c-.202.186-.403.589-.403.992 0 .388.202.79.496.992l12.105 9.517-12.105 9.517c-.294.202-.496.604-.496.992 0 .31.202.698.403.899l1.178 1.287c.201.294.604.402.992.402.31 0 .697-.108.899-.294l12.694-10.028 12.602 10.028c.202.186.605.294.9.294.387 0 .79-.108.991-.402l1.194-1.287c.186-.201.387-.589.387-.899 0-.388-.201-.79-.496-.992l-12.105-9.517 12.105-9.517m103.242 22.909c.295-.294.496-.589.496-.899 0-.388-.093-.79-.496-.992l-15.283-11.997c-.186-.201-.496-.295-.883-.295-.295 0-.605.094-.79.295l-15.284 11.997c-.294.201-.496.605-.496.899 0 .403.202.698.496.992l15.283 11.811c.186.186.496.294.884.294.294 0 .604-.108.79-.294l15.283-11.811m-906.432-22.909c.295-.202.496-.604.496-.992v-.108c0-.388-.201-.698-.387-.884l-1.194-1.194c-.294-.201-.604-.402-.992-.402-.294 0-.698.108-.899.294l-12.602 10.028-12.694-10.028c-.202-.186-.589-.294-.899-.294-.388 0-.589.201-.884.402l-1.286 1.194c-.202.186-.403.589-.403.992 0 .388.202.79.496.992l12.105 9.517-12.105 9.517c-.294.202-.496.604-.496.992 0 .31.202.698.403.899l1.178 1.287c.202.294.605.402.992.402.31 0 .698-.108.899-.294l12.694-10.028 12.602 10.028c.202.186.605.294.9.294.387 0 .79-.108.991-.402l1.194-1.287c.186-.201.387-.589.387-.899 0-.388-.201-.79-.496-.992l-12.105-9.517 12.105-9.517m-285.434 63.287c0 4.262 3.069 9.02 11.114 9.02 10.307 0 21.126-8.431 21.126-17.158 0-5.859-4.96-9.13-11.114-9.13-9.625 0-21.126 8.138-21.126 17.268m1022.87-20.739c-9.223 0-16.957 7.548-16.957 16.77 0 9.223 7.734 16.756 16.957 16.756 9.331 0 16.973-7.533 16.973-16.755 0-9.223-7.642-16.771-16.973-16.771m0 1.394c4.17 0 7.936 1.582 10.71 4.17-1.58-.992-3.766-1.395-6.045-1.395-10.818 0-19.545 7.936-19.545 16.461v.496c-.403-1.488-.698-2.867-.698-4.355 0-8.433 7.053-15.377 15.578-15.377m0 30.752c-4.37 0-8.23-1.782-11.005-4.665 1.581.9 3.472 1.488 5.75 1.488 8.82 0 19.639-8.23 19.639-16.57 0-.697 0-1.286-.201-1.875.898 1.875 1.394 4.061 1.394 6.247 0 8.432-6.944 15.375-15.577 15.375m-939.264-51.785c.295-.294.496-.589.496-.899 0-.388-.093-.79-.496-.992l-15.283-11.997c-.186-.201-.496-.295-.884-.295-.294 0-.604.094-.79.295l-15.283 11.997c-.294.201-.496.605-.496.899 0 .403.201.698.496.992l15.283 11.811c.186.186.496.294.883.294.295 0 .605-.108.791-.294l15.283-11.811m1153.074 40.378c0 4.262 3.069 9.02 11.114 9.02 10.307 0 21.126-8.431 21.126-17.158 0-5.859-4.96-9.13-11.114-9.13-9.625 0-21.126 8.138-21.126 17.268M1396.463 71.127c.295-.202.496-.604.496-.992v-.108c0-.388-.201-.698-.387-.884l-1.194-1.194c-.294-.201-.604-.402-.992-.402-.294 0-.698.108-.899.294l-12.602 10.028-12.694-10.028c-.202-.186-.589-.294-.899-.294-.388 0-.589.201-.883.402l-1.287 1.194c-.202.186-.403.589-.403.992 0 .388.202.79.496.992l12.106 9.517-12.106 9.517c-.294.202-.496.604-.496.992 0 .31.202.698.403.899l1.178 1.287c.202.294.605.402.992.402.31 0 .698-.108.899-.294l12.694-10.028 12.602 10.028c.202.186.605.294.9.294.387 0 .79-.108.991-.402l1.194-1.287c.186-.201.387-.589.387-.899 0-.388-.201-.79-.496-.992l-12.105-9.517 12.105-9.517m-285.424 63.287c0 4.262 3.069 9.02 11.114 9.02 10.307 0 21.126-8.431 21.126-17.158 0-5.859-4.96-9.13-11.114-9.13-9.625 0-21.126 8.138-21.126 17.268m926.586-40.378c.295-.294.496-.589.496-.899 0-.388-.093-.79-.496-.992l-15.283-11.997c-.186-.201-.496-.295-.884-.295-.294 0-.604.094-.79.295l-15.283 11.997c-.294.201-.496.605-.496.899 0 .403.202.698.496.992l15.283 11.811c.186.186.496.294.884.294.294 0 .604-.108.79-.294l15.283-11.811m-510.976 89.978c0 4.262 3.069 9.02 11.114 9.02 10.307 0 21.126-8.431 21.126-17.158 0-5.859-4.96-9.13-11.114-9.13-9.625 0-21.126 8.138-21.126 17.268m32.736-89.978c.295-.294.496-.589.496-.899 0-.388-.093-.79-.496-.992l-15.283-11.997c-.186-.201-.496-.295-.884-.295-.294 0-.604.094-.79.295l-15.283 11.997c-.294.201-.496.605-.496.899 0 .403.202.698.496.992l15.283 11.811c.186.186.496.294.883.294.295 0 .605-.108.791-.294l15.283-11.811m-716.226 89.978c0 4.262 3.069 9.02 11.113 9.02 10.308 0 21.127-8.431 21.127-17.158 0-5.859-4.96-9.13-11.113-9.13-9.626 0-21.127 8.138-21.127 17.268m1162.23 0c0 4.262 3.069 9.02 11.114 9.02 10.307 0 21.126-8.431 21.126-17.158 0-5.859-4.96-9.13-11.114-9.13-9.625 0-21.126 8.138-21.126 17.268m321.07 0c0 4.262 3.069 9.02 11.114 9.02 10.307 0 21.126-8.431 21.126-17.158 0-5.859-4.96-9.13-11.114-9.13-9.625 0-21.126 8.138-21.126 17.268m-1087.134-17.267c-9.625 0-21.126 8.044-21.126 17.267 0 4.262 3.069 9.02 11.113 9.02 10.308 0 21.127-8.431 21.127-17.158 0-5.859-4.96-9.13-11.114-9.13m-13.686 21.623c-3.27 0-3.968-2.666-3.968-3.565 0-4.867 16.662-13.392 21.328-13.392 2.387 0 3.968 1.395 3.968 3.565 0 4.96-16.77 13.392-21.328 13.392m779.75 376.646c0 4.262 3.069 9.02 11.114 9.02 10.307 0 21.126-8.431 21.126-17.158 0-5.859-4.96-9.13-11.114-9.13-9.625 0-21.126 8.138-21.126 17.268m-51.37-124.003c0 4.262 3.069 9.02 11.114 9.02 10.307 0 21.126-8.431 21.126-17.158 0-5.859-4.96-9.13-11.114-9.13-9.625 0-21.126 8.138-21.126 17.268m-1218.018-49.6c0 4.262 3.069 9.02 11.113 9.02 10.308 0 21.127-8.431 21.127-17.158 0-5.859-4.96-9.13-11.113-9.13-9.626 0-21.127 8.138-21.127 17.268m1718.878 49.6c0 4.262 3.069 9.02 11.114 9.02 10.307 0 21.126-8.431 21.126-17.158 0-5.859-4.96-9.13-11.114-9.13-9.625 0-21.126 8.138-21.126 17.268m-927.73 86.803c0 4.262 3.069 9.02 11.114 9.02 10.307 0 21.126-8.431 21.126-17.158 0-5.859-4.96-9.13-11.114-9.13-9.625 0-21.126 8.138-21.126 17.268m-735.36-99.203c0 4.262 3.069 9.02 11.113 9.02 10.308 0 21.127-8.431 21.127-17.158 0-5.859-4.96-9.13-11.113-9.13-9.626 0-21.127 8.138-21.127 17.268m375.04 0c0 4.262 3.069 9.02 11.114 9.02 10.307 0 21.126-8.431 21.126-17.158 0-5.859-4.96-9.13-11.114-9.13-9.625 0-21.126 8.138-21.126 17.268m51.37 99.203c0 4.262 3.069 9.02 11.114 9.02 10.307 0 21.126-8.431 21.126-17.158 0-5.859-4.96-9.13-11.114-9.13-9.625 0-21.126 8.138-21.126 17.268m-107.16-136.403c0 4.262 3.069 9.02 11.114 9.02 10.307 0 21.126-8.431 21.126-17.158 0-5.859-4.96-9.13-11.114-9.13-9.625 0-21.126 8.138-21.126 17.268m1215.42 148.803c0 4.262 3.069 9.02 11.114 9.02 10.307 0 21.126-8.431 21.126-17.158 0-5.859-4.96-9.13-11.114-9.13-9.625 0-21.126 8.138-21.126 17.268m-961.74-148.803c0 4.262 3.069 9.02 11.114 9.02 10.307 0 21.126-8.431 21.126-17.158 0-5.859-4.96-9.13-11.114-9.13-9.625 0-21.126 8.138-21.126 17.268m-369.27 173.603c0 4.262 3.069 9.02 11.114 9.02 10.307 0 21.126-8.431 21.126-17.158 0-5.859-4.96-9.13-11.114-9.13-9.625 0-21.126 8.138-21.126 17.268m425.07-136.403c0 4.262 3.069 9.02 11.114 9.02 10.307 0 21.126-8.431 21.126-17.158 0-5.859-4.96-9.13-11.114-9.13-9.625 0-21.126 8.138-21.126 17.268m982.99-24.8c0 4.262 3.069 9.02 11.114 9.02 10.307 0 21.126-8.431 21.126-17.158 0-5.859-4.96-9.13-11.114-9.13-9.625 0-21.126 8.138-21.126 17.268m-128.42 37.2c0 4.262 3.069 9.02 11.114 9.02 10.307 0 21.126-8.431 21.126-17.158 0-5.859-4.96-9.13-11.114-9.13-9.625 0-21.126 8.138-21.126 17.268m-580.294 69.536c-9.625 0-21.126 8.044-21.126 17.267 0 4.262 3.069 9.02 11.113 9.02 10.308 0 21.127-8.431 21.127-17.158 0-5.859-4.96-9.13-11.114-9.13m-13.686 21.623c-3.27 0-3.968-2.666-3.968-3.565 0-4.867 16.662-13.392 21.328-13.392 2.387 0 3.968 1.395 3.968 3.565 0 4.96-16.77 13.392-21.328 13.392m-837.95 32.845c0 4.262 3.069 9.02 11.113 9.02 10.308 0 21.127-8.431 21.127-17.158 0-5.859-4.96-9.13-11.113-9.13-9.626 0-21.127 8.138-21.127 17.268m1380.55-161.203c0 4.262 3.069 9.02 11.114 9.02 10.307 0 21.126-8.431 21.126-17.158 0-5.859-4.96-9.13-11.114-9.13-9.625 0-21.126 8.138-21.126 17.268m-321.06 0c0 4.262 3.069 9.02 11.114 9.02 10.307 0 21.126-8.431 21.126-17.158 0-5.859-4.96-9.13-11.114-9.13-9.625 0-21.126 8.138-21.126 17.268m235.68-290.137c-9.223 0-16.957 7.548-16.957 16.77 0 9.223 7.735 16.756 16.957 16.756 9.331 0 16.973-7.533 16.973-16.755 0-9.223-7.642-16.771-16.973-16.771m0 1.394c4.17 0 7.936 1.582 10.71 4.17-1.58-.992-3.766-1.395-6.045-1.395-10.818 0-19.545 7.936-19.545 16.461v.496c-.403-1.488-.698-2.867-.698-4.355 0-8.433 7.053-15.377 15.578-15.377m0 30.752c-4.37 0-8.23-1.782-11.005-4.665 1.581.9 3.472 1.488 5.75 1.488 8.82 0 19.639-8.23 19.639-16.57 0-.697 0-1.286-.201-1.875.898 1.875 1.394 4.061 1.394 6.247 0 8.432-6.944 15.375-15.577 15.375" class="Note" style="stroke-width:.992001"/>
  <path d="M335.938 117.642c-.698 0-1.287.605-1.287 1.287v47.43c0 .682.589 1.286 1.287 1.286h10.912c.697 0 1.286-.604 1.286-1.286v-47.43c0-.682-.589-1.286-1.286-1.286h-10.912m21.436 0c-.698 0-1.302.604-1.302 1.286v47.43c0 .682.604 1.286 1.302 1.286h10.912c.698 0 1.287-.604 1.287-1.286v-47.43c0-.682-.59-1.286-1.287-1.286h-10.912m2.48 331.509c-7.548 0-13.594 4.356-13.702 4.356-5.843 4.262-9.61 10.818-9.61 18.057 0 7.239 4.154 12.601 11.501 12.601 6.355 0 11.315-4.262 11.315-10.818 0-5.658-4.96-10.308-10.524-10.308-1.194 0-2.279.186-3.178.496-.992.388-2.666 1.38-3.472 2.077.698-4.371 3.674-8.727 7.548-10.82 2.48-1.379 5.658-1.983 9.13-1.983 10.122 0 15.082 8.138 15.082 24.8 0 12.896-8.246 31.45-17.965 40.192-10.323 9.424-20.041 13.888-20.134 13.888 0 0-1.194.682-1.194 1.875 0 .202.093.295.093.496.31.992 1.194 1.194 1.891 1.194l.295-.093c.201 0 11.516-4.666 20.537-11.718 13.888-10.013 29.559-27.668 29.559-45.927 0-17.267-9.316-28.365-27.172-28.365m31.14 12.586c0 2.79 2.185 4.96 4.774 4.96 2.573 0 4.758-2.17 4.758-4.96 0-2.774-2.185-5.053-4.758-5.053-2.589 0-4.774 2.279-4.774 5.053m0 24.506c0 2.774 2.185 5.068 4.774 5.068 2.573 0 4.758-2.294 4.758-5.068 0-2.775-2.185-5.053-4.758-5.053-2.589 0-4.774 2.278-4.774 5.053" class="Clef" style="stroke-width:.992001"/>
  <path d="M441.245 129.993c-2.185 3.27-5.068 7.238-5.068 10.912 0 1.1.31 1.689 1.395 1.689 1.581 0 2.573-.403 5.75-.589h1.101c2.775-.108 5.456.589 6.154.589.883 0 2.573-1.085 2.48-1.984v-.295c0-.201-.605-3.27-.605-6.944 0-2.092.202-4.464.79-6.649 1.194-4.665 4.372-13.098 6.557-19.344 1.085-3.07 1.69-8.633 1.69-10.82 0-.883 0-1.379-.109-2.277-.093-.993-.496-1.38-1.085-1.38h-1.782c-.496 0-1.194.294-1.194 1.38 0 .992-.201 7.734-4.17 7.734-4.169 0-5.362-8.432-11.81-8.432-6.154 0-9.92 6.262-10.215 6.851v-4.759c0-.604-.496-1.1-1.085-1.1h-2.294c-.589 0-1.085.496-1.085 1.1v18.352c0 .59.496 1.085 1.085 1.085h2.294c.589 0 1.085-.496 1.085-1.085v-3.177c0-2.279 1.488-5.363 4.96-5.363s3.767 3.782 11.703 3.782c1.984 0 5.657-.403 6.649-1.302-.79 1.488-10.912 18.755-13.19 22.026m14.74 35.42c3.27-2.48 5.549-5.657 5.549-9.625 0-7.145-7.827-12.99-17.453-12.99s-17.468 5.845-17.468 12.99c0 3.968.992 7.533 5.657 10.509-4.464 2.589-6.944 6.262-6.944 11.02 0 8.03 8.432 14.478 18.755 14.478 10.308 0 18.74-6.448 18.74-14.478 0-4.758-1.674-9.222-6.836-11.904m-5.564-2.681c-6.743-2.186-14.183-5.456-14.183-9.92 0-3.875 3.565-5.456 7.843-5.456 6.154 0 10.308 2.883 10.308 7.44 0 4.758-2.17 7.037-3.968 7.936m-6.34 23.513c-6.355 0-11.811-3.472-11.811-9.036 0-6.634 5.161-8.23 5.161-8.23 6.743 2.278 16.369 5.657 16.369 11.113 0 2.681-3.38 6.153-9.719 6.153m-2.837 299.949c-2.185 3.27-5.068 7.238-5.068 10.912 0 1.1.31 1.689 1.395 1.689 1.581 0 2.573-.403 5.75-.589h1.101c2.775-.108 5.456.589 6.154.589.883 0 2.573-1.085 2.48-1.984v-.294c0-.202-.605-3.27-.605-6.945 0-2.092.202-4.464.79-6.649 1.194-4.665 4.372-13.098 6.557-19.344 1.085-3.07 1.69-8.633 1.69-10.82 0-.883 0-1.379-.109-2.277-.093-.992-.496-1.38-1.085-1.38h-1.782c-.496 0-1.194.294-1.194 1.38 0 .992-.201 7.734-4.17 7.734-4.169 0-5.362-8.432-11.81-8.432-6.154 0-9.92 6.262-10.215 6.851v-4.759c0-.604-.496-1.1-1.085-1.1h-2.294c-.589 0-1.085.496-1.085 1.1v18.352c0 .59.496 1.085 1.085 1.085h2.294c.589 0 1.085-.496 1.085-1.085v-3.177c0-2.279 1.488-5.363 4.96-5.363s3.767 3.782 11.703 3.782c1.984 0 5.657-.403 6.649-1.302-.79 1.488-10.912 18.755-13.19 22.026m14.74 35.418c3.27-2.48 5.549-5.657 5.549-9.625 0-7.145-7.827-12.99-17.453-12.99s-17.468 5.845-17.468 12.99c0 3.968.992 7.533 5.657 10.509-4.464 2.589-6.944 6.262-6.944 11.02 0 8.03 8.432 14.478 18.755 14.478 10.308 0 18.74-6.448 18.74-14.478 0-4.758-1.674-9.222-6.836-11.904m-5.564-2.681c-6.743-2.186-14.183-5.456-14.183-9.92 0-3.875 3.565-5.456 7.843-5.456 6.154 0 10.308 2.883 10.308 7.44 0 4.758-2.17 7.037-3.968 7.936m-6.34 23.513c-6.355 0-11.811-3.472-11.811-9.036 0-6.634 5.161-8.23 5.161-8.23 6.743 2.278 16.369 5.657 16.369 11.113 0 2.681-3.38 6.153-9.719 6.153" class="TimeSig" style="stroke-width:.992001"/>
  <path d="M535.237 109.505c-.093-.093-.294-.294-.589-.682l-11.408-14.09c-.108-.108-.202-.402-.202-.604 0-.294.093-.682.202-.884l10.106-15.282c.108-.202.202-.496.202-.698v-.884c0-.294-.093-.604-.295-.79L517.18 53.86s-.388-.605-.992-.605c-.295 0-.496 0-.791.31a1.173 1.173 0 0 0-.496.992c0 .59.295 1.085.295 1.085l7.548 10.323c.186.295.294.682.294 1.178 0 .403-.108.9-.294 1.194L512.715 83.62c-.093.201-.201.589-.201.79v.9c0 .294.108.588.31.79l11.098 13.795a9.536 9.536 0 0 0-2.48-.31c-5.053 0-9.021 4.17-9.021 9.238 0 1.38.294 2.774 1.085 3.86 2.093 3.177 9.532 12.601 9.532 12.601s.496.605 1.194.605c.186 0 .388 0 .589-.202.496-.403.697-.79.697-1.193s-.201-.698-.294-.9c-.31-.495-3.472-6.246-3.472-6.246s-.697-1.395-.697-3.177c0-3.178 2.371-5.751 5.549-5.751 1.286 0 2.386.403 3.177.9l3.875 2.48s.388.185.79.185c.388 0 .698-.093.992-.496a1.54 1.54 0 0 0 .295-.884c0-.294-.093-.496-.294-.79l-.202-.31m483.028 0c-.093-.093-.294-.294-.589-.682l-11.408-14.09c-.109-.108-.202-.402-.202-.604 0-.294.093-.682.202-.884l10.106-15.282c.108-.202.201-.496.201-.698v-.884c0-.294-.093-.604-.294-.79l-16.073-21.731s-.388-.605-.992-.605c-.295 0-.496 0-.791.31a1.173 1.173 0 0 0-.496.992c0 .59.295 1.085.295 1.085l7.548 10.323c.186.295.294.682.294 1.178 0 .403-.108.9-.294 1.194L995.743 83.62c-.093.201-.201.589-.201.79v.9c0 .294.108.588.31.79l11.098 13.795a9.543 9.543 0 0 0-2.48-.31c-5.053 0-9.021 4.17-9.021 9.238 0 1.38.295 2.774 1.085 3.86 2.093 3.177 9.533 12.601 9.533 12.601s.496.605 1.193.605c.186 0 .388 0 .589-.202.496-.403.698-.79.698-1.193s-.202-.698-.295-.9c-.31-.495-3.472-6.246-3.472-6.246s-.697-1.395-.697-3.177c0-3.178 2.371-5.751 5.549-5.751 1.286 0 2.387.403 3.177.9l3.875 2.48s.388.185.79.185c.388 0 .698-.093.992-.496a1.54 1.54 0 0 0 .295-.884c0-.294-.093-.496-.294-.79l-.202-.31m-336.505 0c-.093-.093-.294-.294-.589-.682l-11.408-14.09c-.108-.108-.202-.402-.202-.604 0-.294.093-.682.202-.884l10.106-15.282c.108-.202.202-.496.202-.698v-.884c0-.294-.094-.604-.295-.79L663.703 53.86s-.388-.605-.992-.605c-.295 0-.496 0-.791.31a1.173 1.173 0 0 0-.496.992c0 .59.295 1.085.295 1.085l7.548 10.323c.186.295.294.682.294 1.178 0 .403-.108.9-.294 1.194L659.238 83.62c-.093.201-.201.589-.201.79v.9c0 .294.108.588.31.79l11.098 13.795a9.536 9.536 0 0 0-2.48-.31c-5.053 0-9.021 4.17-9.021 9.238 0 1.38.294 2.774 1.085 3.86 2.093 3.177 9.532 12.601 9.532 12.601s.496.605 1.194.605c.186 0 .388 0 .589-.202.496-.403.697-.79.697-1.193s-.201-.698-.294-.9c-.31-.495-3.472-6.246-3.472-6.246s-.697-1.395-.697-3.177c0-3.178 2.371-5.751 5.549-5.751 1.286 0 2.386.403 3.177.9l3.875 2.48s.388.185.79.185c.388 0 .698-.093.992-.496a1.54 1.54 0 0 0 .295-.884c0-.294-.093-.496-.294-.79l-.202-.31m991.909 32.147c0 1.395 0 1.395 1.395 1.395h29.466c1.379 0 1.379 0 1.379-1.395v-10.71c0-1.395 0-1.395-1.38-1.395h-29.465c-1.395 0-1.395 0-1.395 1.394v10.711m470.116 67.053c-.093-.093-.294-.294-.589-.682l-11.408-14.09c-.109-.108-.202-.402-.202-.604 0-.294.094-.682.202-.883l10.106-15.283c.109-.202.202-.496.202-.698v-.884c0-.294-.094-.604-.295-.79l-16.073-21.731s-.388-.605-.993-.605c-.294 0-.496 0-.79.31a1.173 1.173 0 0 0-.496.992c0 .59.294 1.085.294 1.085l7.55 10.323c.185.295.293.682.293 1.178 0 .404-.108.9-.294 1.194l-10.029 15.283c-.093.201-.201.589-.201.79v.9c0 .294.108.588.31.79l11.098 13.795a9.543 9.543 0 0 0-2.48-.31c-5.053 0-9.021 4.17-9.021 9.238 0 1.38.294 2.774 1.085 3.86 2.092 3.177 9.532 12.601 9.532 12.601s.496.605 1.194.605c.186 0 .387 0 .589-.202.496-.403.697-.79.697-1.193s-.201-.698-.294-.9c-.31-.495-3.472-6.246-3.472-6.246s-.698-1.395-.698-3.177c0-3.178 2.372-5.751 5.55-5.751 1.286 0 2.386.403 3.177.9l3.875 2.48s.387.185.79.185c.388 0 .698-.093.992-.496a1.54 1.54 0 0 0 .295-.884c0-.294-.093-.496-.295-.79l-.201-.31m-1608.548 0c-.093-.093-.294-.294-.589-.682l-11.408-14.09c-.108-.108-.202-.402-.202-.604 0-.294.093-.682.202-.883l10.106-15.283c.109-.202.202-.496.202-.698v-.884c0-.294-.093-.604-.295-.79L517.18 153.06s-.388-.605-.992-.605c-.295 0-.496 0-.791.31a1.173 1.173 0 0 0-.496.992c0 .59.295 1.085.295 1.085l7.548 10.323c.186.295.294.682.294 1.178 0 .404-.108.9-.294 1.194l-10.029 15.283c-.093.201-.201.589-.201.79v.9c0 .294.108.588.31.79l11.098 13.795a9.536 9.536 0 0 0-2.48-.31c-5.053 0-9.021 4.17-9.021 9.238 0 1.38.294 2.774 1.085 3.86 2.093 3.177 9.532 12.601 9.532 12.601s.496.605 1.194.605c.186 0 .388 0 .589-.202.496-.403.697-.79.697-1.193s-.201-.698-.294-.9c-.31-.495-3.472-6.246-3.472-6.246s-.697-1.395-.697-3.177c0-3.178 2.371-5.751 5.549-5.751 1.286 0 2.386.403 3.177.9l3.875 2.48s.388.185.79.185c.388 0 .698-.093.992-.496a1.54 1.54 0 0 0 .295-.884c0-.294-.093-.496-.295-.79l-.201-.31m483.028 0c-.093-.093-.294-.294-.589-.682l-11.408-14.09c-.109-.108-.202-.402-.202-.604 0-.294.093-.682.202-.883l10.106-15.283c.108-.202.201-.496.201-.698v-.884c0-.294-.093-.604-.294-.79l-16.073-21.731s-.388-.605-.992-.605c-.295 0-.496 0-.791.31a1.173 1.173 0 0 0-.496.992c0 .59.295 1.085.295 1.085l7.548 10.323c.186.295.294.682.294 1.178 0 .404-.108.9-.294 1.194l-10.029 15.283c-.093.201-.201.589-.201.79v.9c0 .294.108.588.31.79l11.098 13.795a9.543 9.543 0 0 0-2.48-.31c-5.053 0-9.021 4.17-9.021 9.238 0 1.38.295 2.774 1.085 3.86 2.093 3.177 9.533 12.601 9.533 12.601s.496.605 1.193.605c.186 0 .388 0 .589-.202.496-.403.698-.79.698-1.193s-.202-.698-.295-.9c-.31-.495-3.472-6.246-3.472-6.246s-.697-1.395-.697-3.177c0-3.178 2.371-5.751 5.549-5.751 1.286 0 2.387.403 3.177.9l3.875 2.48s.388.185.79.185c.388 0 .698-.093.992-.496a1.54 1.54 0 0 0 .295-.884c0-.294-.093-.496-.294-.79l-.202-.31m-336.505 0c-.093-.093-.294-.294-.589-.682l-11.408-14.09c-.108-.108-.202-.402-.202-.604 0-.294.093-.682.202-.883l10.106-15.283c.109-.202.202-.496.202-.698v-.884c0-.294-.094-.604-.295-.79l-16.073-21.731s-.388-.605-.992-.605c-.295 0-.496 0-.791.31a1.173 1.173 0 0 0-.496.992c0 .59.295 1.085.295 1.085l7.548 10.323c.186.295.294.682.294 1.178 0 .404-.108.9-.294 1.194l-10.029 15.283c-.093.201-.201.589-.201.79v.9c0 .294.108.588.31.79l11.098 13.795a9.536 9.536 0 0 0-2.48-.31c-5.053 0-9.021 4.17-9.021 9.238 0 1.38.294 2.774 1.085 3.86 2.093 3.177 9.532 12.601 9.532 12.601s.496.605 1.194.605c.186 0 .388 0 .589-.202.496-.403.697-.79.697-1.193s-.201-.698-.294-.9c-.31-.495-3.472-6.246-3.472-6.246s-.697-1.395-.697-3.177c0-3.178 2.371-5.751 5.549-5.751 1.286 0 2.386.403 3.177.9l3.875 2.48s.388.185.79.185c.388 0 .698-.093.992-.496a1.54 1.54 0 0 0 .295-.884c0-.294-.093-.496-.294-.79l-.202-.31m1247.379-36.595c-.093 0-.295-.11-.403-.11-.59 0-1.086.31-1.287.807-2.279 4.557-7.037 10.71-12.4 11.702 1.085-1.286 1.782-2.882 1.782-4.758 0-3.875-3.177-7.052-7.036-7.052-3.969 0-7.146 3.177-7.146 7.052 0 5.347 5.255 7.827 9.92 7.827 5.255 0 8.726-2.48 12.105-6.153l-11.315 35.325 2.682.79 13.888-43.741c.109-.108.109-.31.109-.496 0-.496-.31-.899-.9-1.194M535.237 515.306c-.093-.093-.294-.294-.589-.682l-11.408-14.09c-.108-.108-.202-.402-.202-.604 0-.295.093-.682.202-.884l10.106-15.282c.109-.202.202-.496.202-.698v-.884c0-.294-.093-.604-.295-.79L517.18 459.66s-.388-.605-.992-.605c-.295 0-.496 0-.791.31a1.173 1.173 0 0 0-.496.992c0 .59.295 1.085.295 1.085l7.548 10.323c.186.295.294.682.294 1.178 0 .404-.108.9-.294 1.194l-10.029 15.283c-.093.201-.201.589-.201.79v.9c0 .294.108.588.31.79l11.098 13.795a9.536 9.536 0 0 0-2.48-.31c-5.053 0-9.021 4.17-9.021 9.238 0 1.38.294 2.774 1.085 3.86 2.093 3.177 9.532 12.601 9.532 12.601s.496.605 1.194.605c.186 0 .388 0 .589-.202.496-.403.697-.79.697-1.193s-.201-.698-.294-.9c-.31-.495-3.472-6.246-3.472-6.246s-.697-1.395-.697-3.177c0-3.178 2.371-5.751 5.549-5.751 1.286 0 2.386.403 3.177.9l3.875 2.48s.388.185.79.185c.388 0 .698-.093.992-.496a1.54 1.54 0 0 0 .295-.884c0-.294-.093-.496-.295-.79l-.201-.31m150.196-36.595c-.092 0-.294-.108-.402-.108-.59 0-1.086.31-1.287.806-2.279 4.557-7.037 10.71-12.4 11.702 1.085-1.286 1.783-2.882 1.783-4.758 0-3.875-3.178-7.052-7.037-7.052-3.968 0-7.146 3.177-7.146 7.052 0 5.347 5.255 7.827 9.92 7.827 5.255 0 8.727-2.48 12.106-6.153l-11.315 35.324 2.681.791 13.888-43.741c.109-.108.109-.31.109-.496 0-.496-.31-.899-.9-1.194" class="Rest" style="stroke-width:.992001"/>
  <path fill-rule="evenodd" d="M1140.539 49.644h58.52v12.4h-58.52v-12.4m0 18.6h58.52v12.4h-58.52v-12.4m253.69-68.2h58.52v12.4h-58.52V.044m0 18.6h58.52v12.4h-58.52v-12.4m756.25-.044L2307.319 0v12.487l-156.84 18.6V18.6m0 18.6 156.84-18.6v12.487l-156.84 18.6V37.2m205.98-12.419 130.66 18.6v12.525l-130.66-18.6V24.781m76.56 29.499 54.1 7.701v12.525l-54.1-7.701V54.28m-500.87-4.636h54.1v12.4h-54.1v-12.4m0 18.6h54.1v12.4h-54.1v-12.4m-567.43 418.161 58.52 6.2v12.47l-58.52-6.2v-12.47m0-18.6 58.52 6.2v12.47l-58.52-6.2v-12.47m961.74 124.01 131.15-12.4v12.45l-131.15 12.4v-12.45m77.05-25.89 54.1-5.11v12.45l-54.1 5.12v-12.46m-1292.47-79.52 58.52 6.2v12.47l-58.52-6.2v-12.47m0-18.6 58.52 6.2v12.47l-58.52-6.2v-12.47m-375.038 18.6 58.518 6.2v12.47l-58.518-6.2v-12.47m0-18.6 58.518 6.2v12.47l-58.518-6.2v-12.47m1487.708 43.4 54.1 6.2v12.48l-54.1-6.2v-12.48m0-18.6 54.1 6.2v12.48l-54.1-6.2v-12.48m-321.06 18.6 54.1 6.2v12.48l-54.1-6.2v-12.48m0-18.6 54.1 6.2v12.48l-54.1-6.2v-12.48" class="Beam"/>
  <path d="m521.468 401.145-8.641.547v2.156h1.797c1.891.047 2.141.344 2.141 2.5v24.438c-.047.703-.094 1-.297 1.25-.344.453-1.297.656-3.453.703h-.188v1.797h13v-1.797h-.562c-3.344-.094-3.797-.344-3.797-2.141v-9.453c1.656 2.891 3.5 4.047 6.609 4.047 6.641 0 10.094-6.547 10.094-12.5 0-5.656-3.453-12.297-9.797-12.297-3.109 0-5.156 1.297-6.906 4.297v-3.547m6 1.953c3.453 0 5.453 3.438 5.453 9.297 0 6.453-2 10.094-5.594 10.094-3.609 0-5.906-3.703-5.906-9.453 0-6.25 2.25-9.938 6.047-9.938m20.594-14.406a2.897 2.897 0 0 0-2.906 2.891c0 1.609 1.296 2.906 2.859 2.906 1.641 0 2.937-1.297 2.937-2.906a2.894 2.894 0 0 0-2.89-2.891m2.344 12.453-9.391.547v2.156h2.547c1.89.047 2.14.344 2.14 2.5v14.297c-.046.75-.093 1.047-.296 1.297-.344.453-1.297.656-3.454.703h-.343v1.797h12.953v-1.797h-.36c-3.343-.109-3.796-.359-3.796-2.156v-19.344m26.89 0h-18.062l-.438 8.453h2c.391-4.453 2.344-6.359 6.344-6.312h4.344l-13.641 19.359v1.797h19.453l.344-8.953h-2c-.5 4.906-2.453 6.859-6.906 6.797h-5.094l13.656-19.344v-1.797m24.047 0h-18.062l-.438 8.453h2c.391-4.453 2.344-6.359 6.344-6.312h4.344l-13.641 19.359v1.797h19.453l.344-8.953h-2c-.5 4.906-2.453 6.859-6.906 6.797h-5.094l13.656-19.344v-1.797m9.484 17.75c-1.75 0-3.14 1.391-3.14 3.094 0 1.75 1.39 3.156 3.094 3.156a3.147 3.147 0 0 0 3.156-3.156c0-1.703-1.406-3.094-3.11-3.094" class="PlayTechAnnotation"/>
  <path d="M1263.329 80.644a4.916 4.916 0 0 0 4.96 4.96 4.916 4.916 0 0 0 4.96-4.96 4.916 4.916 0 0 0-4.96-4.96 4.916 4.916 0 0 0-4.96 4.96m308.95 99.2a4.916 4.916 0 0 0 4.96 4.96 4.916 4.916 0 0 0 4.96-4.96 4.916 4.916 0 0 0-4.96-4.96 4.916 4.916 0 0 0-4.96 4.96m0-99.2a4.916 4.916 0 0 0 4.96 4.96 4.916 4.916 0 0 0 4.96-4.96 4.916 4.916 0 0 0-4.96-4.96 4.916 4.916 0 0 0-4.96 4.96m-1024.154 0a4.916 4.916 0 0 0 4.96 4.96 4.916 4.916 0 0 0 4.96-4.96 4.916 4.916 0 0 0-4.96-4.96 4.916 4.916 0 0 0-4.96 4.96m0 99.2a4.916 4.916 0 0 0 4.96 4.96 4.916 4.916 0 0 0 4.96-4.96 4.916 4.916 0 0 0-4.96-4.96 4.916 4.916 0 0 0-4.96 4.96m483.034 0a4.916 4.916 0 0 0 4.96 4.96 4.916 4.916 0 0 0 4.96-4.96 4.916 4.916 0 0 0-4.96-4.96 4.916 4.916 0 0 0-4.96 4.96m540.62 331.401a4.916 4.916 0 0 0 4.96 4.96 4.916 4.916 0 0 0 4.96-4.96 4.916 4.916 0 0 0-4.96-4.96 4.916 4.916 0 0 0-4.96 4.96m478.24 49.6a4.916 4.916 0 0 0 4.96 4.96 4.916 4.916 0 0 0 4.96-4.96 4.916 4.916 0 0 0-4.96-4.96 4.916 4.916 0 0 0-4.96 4.96m-787.19-49.6a4.916 4.916 0 0 0 4.96 4.96 4.916 4.916 0 0 0 4.96-4.96 4.916 4.916 0 0 0-4.96-4.96 4.916 4.916 0 0 0-4.96 4.96m-714.704-24.8a4.916 4.916 0 0 0 4.96 4.96 4.916 4.916 0 0 0 4.96-4.96 4.916 4.916 0 0 0-4.96-4.96 4.916 4.916 0 0 0-4.96 4.96" class="NoteDot" style="stroke-width:.992001"/>
  <text xml:space="preserve" x="753.321" y="338.633" style="font-size:48px;font-family:&quot;Noto Serif&quot;,serif;-inkscape-font-specification:&quot;Noto Serif&quot;,serif;text-align:center;text-anchor:middle;fill:#ff8080;stroke-width:0"><tspan x="753.321" y="338.633" style="fill:#5e8dd3;fill-opacity:1">i5</tspan></text>
  <text xml:space="preserve" x="1169.338" y="338.262" style="font-size:48px;font-family:&quot;Noto Serif&quot;,serif;-inkscape-font-specification:&quot;Noto Serif&quot;,serif;text-align:center;text-anchor:middle;fill:#5e8dd3;fill-opacity:1;stroke-width:0"><tspan x="1169.338" y="338.262">i𝗌𝗎𝗌4</tspan></text>
  <text xml:space="preserve" x="1246.727" y="310.072" style="font-size:32px;font-family:&quot;Noto Serif&quot;,serif;-inkscape-font-specification:&quot;Noto Serif&quot;,serif;text-align:center;text-anchor:middle;fill:#5e8dd3;fill-opacity:1;stroke-width:0"><tspan x="1246.727" y="310.072" style="font-size:32px">5</tspan></text>
  <text xml:space="preserve" x="1246.535" y="353.956" style="font-size:32px;font-family:&quot;Noto Serif&quot;,serif;-inkscape-font-specification:&quot;Noto Serif&quot;,serif;text-align:center;text-anchor:middle;fill:#5e8dd3;fill-opacity:1;stroke-width:0"><tspan x="1246.535" y="353.956" style="font-size:32px">2</tspan></text>
  <text xml:space="preserve" x="1544.609" y="339.26" style="font-size:48px;font-family:&quot;Noto Serif&quot;,serif;-inkscape-font-specification:&quot;Noto Serif&quot;,serif;text-align:center;text-anchor:middle;fill:#5e8dd3;fill-opacity:1;stroke-width:0"><tspan x="1544.609" y="339.26" style="fill:#ff8080;fill-opacity:1">(I)</tspan></text>
  <text xml:space="preserve" x="1918.764" y="339.666" style="font-size:48px;font-family:&quot;Noto Serif&quot;,serif;-inkscape-font-specification:&quot;Noto Serif&quot;,serif;text-align:center;text-anchor:middle;fill:#ff8080;fill-opacity:1;stroke-width:0"><tspan x="1918.764" y="339.666">I</tspan></text>
  <text xml:space="preserve" x="1944.695" y="312.648" style="font-size:32px;font-family:&quot;Noto Serif&quot;,serif;-inkscape-font-specification:&quot;Noto Serif&quot;,serif;text-align:center;text-anchor:middle;fill:#ff8080;fill-opacity:1;stroke-width:0"><tspan x="1944.695" y="312.648" style="font-size:32px">6</tspan></text>
  <text xml:space="preserve" x="1943.511" y="355.663" style="font-size:32px;font-family:&quot;Noto Serif&quot;,serif;-inkscape-font-specification:&quot;Noto Serif&quot;,serif;text-align:center;text-anchor:middle;fill:#ff8080;fill-opacity:1;stroke-width:0"><tspan x="1943.511" y="355.663" style="font-size:32px">4</tspan></text>
  <text xml:space="preserve" x="2278.054" y="339.882" style="font-size:48px;font-family:&quot;Noto Serif&quot;,serif;-inkscape-font-specification:&quot;Noto Serif&quot;,serif;text-align:center;text-anchor:middle;fill:#ff8080;fill-opacity:1;stroke-width:0"><tspan x="2278.054" y="339.882">I∆7</tspan></text>
  <text xml:space="preserve" x="2334.455" y="312.439" style="font-size:32px;font-family:&quot;Noto Serif&quot;,serif;-inkscape-font-specification:&quot;Noto Serif&quot;,serif;text-align:center;text-anchor:middle;fill:#ff8080;fill-opacity:1;stroke-width:0"><tspan x="2334.455" y="312.439" style="font-size:32px">4</tspan></text>
  <text xml:space="preserve" x="2334.535" y="357.05" style="font-size:32px;font-family:&quot;Noto Serif&quot;,serif;-inkscape-font-specification:&quot;Noto Serif&quot;,serif;text-align:center;text-anchor:middle;fill:#ff8080;fill-opacity:1;stroke-width:0"><tspan x="2334.535" y="357.05" style="font-size:32px">2</tspan></text>
  <text xml:space="preserve" x="536.717" y="339.296" style="font-size:48px;font-family:&quot;Noto Serif&quot;,serif;-inkscape-font-specification:&quot;Noto Serif&quot;,serif;text-align:center;text-anchor:middle;fill:#ff8080;fill-opacity:1;stroke-width:0"><tspan x="536.717" y="339.296" style="font-style:normal;font-variant:normal;font-weight:700;font-stretch:normal;font-size:48px;font-family:&quot;Noto Serif&quot;,serif;-inkscape-font-specification:&quot;Noto Serif Bold&quot;;fill:#5e8dd3;fill-opacity:1">F:</tspan></text>
  <text xml:space="preserve" x="1475.595" y="339.666" style="font-size:48px;font-family:&quot;Noto Serif&quot;,serif;-inkscape-font-specification:&quot;Noto Serif&quot;,serif;text-align:center;text-anchor:middle;fill:#5e8dd3;fill-opacity:1;stroke-width:0"><tspan x="1475.595" y="339.666" style="font-style:normal;font-variant:normal;font-weight:700;font-stretch:normal;font-family:&quot;Noto Serif&quot;,serif;-inkscape-font-specification:&quot;Noto Serif Bold&quot;;fill:#ff8080;fill-opacity:1">B:</tspan></text>
</svg>
