<svg xmlns="http://www.w3.org/2000/svg" width="3215.872" height="328.442" version="1.2">
  <path fill="none" stroke="#000" stroke-linejoin="bevel" stroke-width="2.73" d="M0 136.229h3215.872M0 161.029h3215.872M0 185.829h3215.872M0 210.629h3215.872M0 235.429h3215.872" class="StaffLines"/>
  <path d="M428.645 193.966c.294-.402 8.432-5.657 8.432-20.537 0-14.88-8.231-20.243-8.432-20.63-.202-.202-.388-.295-.698-.295-.294 0-.589.388-.589.682 0 .201 0 .403.093.496 4.077 6.944 5.456 14.09 5.456 19.747 0 10.416-4.557 17.453-5.456 19.639-.093.294-.093.402-.093.496 0 .294.294.697.589.697.31 0 .605-.201.698-.294m-34.806-.001c.093.094.403.295.698.295.294 0 .589-.403.589-.697 0-.094 0-.202-.093-.496-.9-2.186-5.456-9.223-5.456-19.639 0-5.658 1.379-12.803 5.456-19.747.093-.093.093-.295.093-.496 0-.295-.295-.682-.59-.682a.903.903 0 0 0-.697.294c-.201.388-8.432 5.751-8.432 20.631 0 14.88 8.138 20.135 8.432 20.537m-19.344 0c.294-.402 8.432-5.657 8.432-20.537 0-14.88-8.231-20.243-8.432-20.63-.202-.202-.388-.295-.698-.295-.295 0-.589.388-.589.682 0 .201 0 .403.093.496 4.077 6.944 5.456 14.09 5.456 19.747 0 10.416-4.557 17.453-5.456 19.639-.093.294-.093.402-.093.496 0 .294.294.697.589.697.31 0 .605-.201.698-.294m-34.806-.001c.093.094.403.295.698.295.294 0 .589-.403.589-.697 0-.094 0-.202-.093-.496-.9-2.186-5.456-9.223-5.456-19.639 0-5.658 1.379-12.803 5.456-19.747.093-.093.093-.295.093-.496 0-.295-.295-.682-.59-.682a.903.903 0 0 0-.697.294c-.201.388-8.432 5.751-8.432 20.631 0 14.88 8.138 20.135 8.432 20.537m635.615 0c.093.094.403.295.698.295.294 0 .589-.403.589-.697 0-.094 0-.202-.093-.496-.9-2.186-5.456-9.223-5.456-19.639 0-5.658 1.379-12.803 5.456-19.747.093-.093.093-.295.093-.496 0-.295-.295-.682-.59-.682a.903.903 0 0 0-.697.294c-.201.388-8.432 5.751-8.432 20.631 0 14.88 8.138 20.135 8.432 20.537m34.805 0c.294-.402 8.432-5.657 8.432-20.537 0-14.88-8.231-20.243-8.432-20.63-.202-.202-.388-.295-.698-.295-.294 0-.589.388-.589.682 0 .201 0 .403.093.496 4.077 6.944 5.456 14.09 5.456 19.747 0 10.416-4.557 17.453-5.456 19.639-.093.294-.093.402-.093.496 0 .294.294.697.589.697.31 0 .605-.201.698-.294m19.345-.001c.093.094.403.295.698.295.294 0 .588-.403.588-.697 0-.094 0-.202-.093-.496-.899-2.186-5.456-9.223-5.456-19.639 0-5.658 1.38-12.803 5.456-19.747.093-.093.093-.295.093-.496 0-.295-.294-.682-.589-.682a.903.903 0 0 0-.697.294c-.202.388-8.432 5.751-8.432 20.631 0 14.88 8.137 20.135 8.432 20.537m34.804 0c.295-.402 8.432-5.657 8.432-20.537 0-14.88-8.23-20.243-8.432-20.63-.201-.202-.387-.295-.697-.295-.294 0-.589.388-.589.682 0 .201 0 .403.093.496 4.077 6.944 5.456 14.09 5.456 19.747 0 10.416-4.557 17.453-5.456 19.639-.093.294-.093.402-.093.496 0 .294.294.697.589.697.31 0 .605-.201.698-.294" class="Symbol" style="stroke-width:.992001"/>
  <path fill="none" stroke="#000" stroke-linejoin="bevel" stroke-width="4.46" d="M3190.822 134.865v101.928" class="BarLine"/>
  <path fill="none" stroke="#000" stroke-linejoin="bevel" stroke-width="13.64" d="M3209.052 134.865v101.928" class="BarLine"/>
  <path fill="none" stroke="#000" stroke-linejoin="bevel" stroke-width="4.46" d="M2301.072 134.865v101.928m-1198.67-101.928v101.928m583.41-101.928v101.928" class="BarLine"/>
  <path fill="none" stroke="#000" stroke-linejoin="bevel" stroke-width="3.97" d="M3054.942 86.629h48.6m-48.6 24.8h48.6m-103.41-24.8h48.61m-48.61 24.8h48.61m-158.21 0h48.6m-48.6-24.8h48.6m170.61 24.8h48.6m-48.6-24.8h48.6m-213.01 24.8h48.6m-48.6-24.8h48.6" class="LedgerLine"/>
  <path fill="none" stroke="#000" stroke-linejoin="bevel" stroke-width="2.48" d="M324.856 169.461V80.429m2225.976 113.832V58.728m-1091.66 110.733V99.029m1138.77 95.232V54.139m-1275.14 115.322V99.029m-47.12 70.432V99.029m1369.37 24.8v-74.28m47.12 144.712V67.908m-1463.6 101.553V99.029m277.71 70.432V99.029m1233 95.232V63.318m-1677.55 106.143V67.876M371.968 169.461V80.429m635.614 89.032V61.199m1778.81 133.062V58.728M960.472 169.461V55.39m2188.44 114.071V12.228m-1260.45 157.233V37.028m230.6 132.433V67.868m47.11 101.593V61.775m-94.22 62.054V37.028m-44.63 76.285V37.028m185.97 132.433V55.682m-230.61 113.779V37.028m277.72 86.801v-74.24m-324.83 119.872V37.028M470.75 169.461V99.029m2623.362 70.432V12.228m-637.51 182.033V67.908m-615.25 101.553V37.028M277.744 169.461V80.429m2761.568 89.032V12.228m-535.59 182.033V63.318m-950.32 106.143V99.029m-710.71 70.432V80.429m-91.748 89.032V80.429m2178.768 89.032V12.228M706.311 169.461V80.429m89.261 89.032V80.429m2085.04 43.4v-74.28M426.118 169.461V80.429m-195.487 89.032V80.429m428.568 89.032V80.429m-94.224 89.032V99.029m2419.537 70.432V12.228M913.352 169.461V49.581m1920.15 144.68V54.139M517.862 169.461V99.029m1052.9 128.166v85.652m1438.8-85.652v70.234m-488.48-70.234v70.234m-1091.66-39.085v63.803m-988.424-63.803v61.965m2032.964-93.114v70.234M629.447 258.344v60.466m894.195-60.466v57.603m612.78-88.752v95.034m47.11-95.034v95.034m-568.14-95.034v82.715m811.46-82.715v70.234m473.11-70.234v70.234m-810.65-70.234v95.034m1029.85-95.034v70.234M582.335 227.195v91.99m1229.257-91.99v57.834M200.879 227.195v95.024m334.343-63.875v61.215m663.6-92.364v94.952m-350.55-94.952v89.874m2106.49-89.874v70.234M295.104 258.344v63.125m682.728-94.274v88.844m1684.58-88.844v70.234m141.34-70.234v70.234m260.61-70.234v70.234M765.824 258.344v59.381m1943.708-90.53v70.234m-1416.49-39.085v57.603m47.12-88.752v85.652m44.63-85.652v82.715m1371.85-82.715v70.234m-188.45-70.234v70.234m-1637.48-39.085v58.069" class="Stem"/>
  <path d="M2755.402 202.399c0 4.262 3.069 9.02 11.114 9.02 10.307 0 21.126-8.431 21.126-17.158 0-5.859-4.96-9.13-11.114-9.13-9.625 0-21.126 8.138-21.126 17.268m-47.11-24.8c0 4.262 3.069 9.02 11.114 9.02 10.307 0 21.126-8.431 21.126-17.158 0-5.859-4.96-9.13-11.114-9.13-9.625 0-21.126 8.138-21.126 17.268m-2268.534 0c0 4.262 3.069 9.02 11.113 9.02 10.308 0 21.127-8.431 21.127-17.158 0-5.859-4.96-9.13-11.113-9.13-9.626 0-21.127 8.138-21.127 17.268m1742.534 0c0 4.262 3.069 9.02 11.114 9.02 10.307 0 21.126-8.431 21.126-17.158 0-5.859-4.96-9.13-11.114-9.13-9.625 0-21.126 8.138-21.126 17.268" class="Note" style="stroke-width:.992001"/>
  <path d="M2755.402 177.599c0 4.262 3.069 9.02 11.114 9.02 10.307 0 21.126-8.431 21.126-17.158 0-5.859-4.96-9.13-11.114-9.13-9.625 0-21.126 8.138-21.126 17.268m47.11 24.8c0 4.262 3.069 9.02 11.114 9.02 10.307 0 21.126-8.431 21.126-17.158 0-5.859-4.96-9.13-11.114-9.13-9.625 0-21.126 8.138-21.126 17.268m237.554-125.287c.295-.202.496-.604.496-.992v-.108c0-.388-.201-.698-.387-.884l-1.194-1.194c-.294-.201-.604-.402-.992-.402-.294 0-.698.108-.899.294l-12.602 10.028-12.694-10.028c-.202-.186-.589-.294-.899-.294-.388 0-.589.201-.884.402l-1.286 1.194c-.202.186-.403.589-.403.992 0 .388.201.79.496.992l12.105 9.517-12.105 9.517c-.295.202-.496.604-.496.992 0 .31.201.698.403.899l1.178 1.287c.201.294.604.402.992.402.31 0 .697-.108.899-.294l12.694-10.028 12.602 10.028c.201.186.605.294.9.294.387 0 .79-.108.991-.402l1.194-1.287c.186-.201.387-.589.387-.899 0-.388-.201-.79-.496-.992l-12.105-9.517 12.105-9.517m-331.774 125.287c0 4.262 3.069 9.02 11.114 9.02 10.307 0 21.126-8.431 21.126-17.158 0-5.859-4.96-9.13-11.114-9.13-9.625 0-21.126 8.138-21.126 17.268m-573.11-24.8c0 4.262 3.069 9.02 11.114 9.02 10.307 0 21.126-8.431 21.126-17.158 0-5.859-4.96-9.13-11.114-9.13-9.625 0-21.126 8.138-21.126 17.268m850.084-100.487c.295-.202.496-.604.496-.992v-.108c0-.388-.201-.698-.387-.884l-1.194-1.194c-.294-.201-.604-.402-.992-.402-.294 0-.697.108-.899.294l-12.601 10.028-12.695-10.028c-.202-.186-.589-.294-.899-.294-.388 0-.589.201-.883.402l-1.287 1.194c-.202.186-.403.589-.403.992 0 .388.202.79.496.992l12.105 9.517-12.105 9.517c-.294.202-.496.604-.496.992 0 .31.202.698.403.899l1.178 1.287c.201.294.604.402.992.402.31 0 .698-.108.899-.294l12.694-10.028 12.602 10.028c.202.186.605.294.9.294.387 0 .79-.108.991-.402l1.194-1.287c.186-.201.387-.589.387-.899 0-.388-.201-.79-.496-.992l-12.105-9.517 12.105-9.517m-31.744 100.487c0 4.262 3.069 9.02 11.114 9.02 10.307 0 21.126-8.431 21.126-17.158 0-5.859-4.96-9.13-11.114-9.13-9.625 0-21.126 8.138-21.126 17.268m-708.037-69.937c-8.928 0-16.073 7.239-16.073 16.167a16.009 16.009 0 0 0 16.073 16.073c8.928 0 16.167-7.145 16.167-16.073s-7.239-16.167-16.167-16.167m.093 14.183-8.726-8.03c2.278-1.983 5.363-3.285 8.633-3.285 3.565 0 6.944 1.395 9.332 3.782l-9.239 7.533m-2.278 1.891-8.835 7.332a13.009 13.009 0 0 1-2.17-7.239c0-2.976.992-5.75 2.666-7.936l8.339 7.843m4.371.093 8.928-7.239a13.021 13.021 0 0 1 2.186 7.239c0 2.976-.992 5.75-2.682 7.936l-8.432-7.936m-2.186 1.891 8.727 8.122c-2.279 1.984-5.363 3.178-8.634 3.178-3.565 0-6.944-1.38-9.315-3.767l9.222-7.533m384.65-18.058c-8.928 0-16.073 7.239-16.073 16.167a16.009 16.009 0 0 0 16.073 16.073c8.928 0 16.167-7.145 16.167-16.073s-7.239-16.167-16.167-16.167m.093 14.183-8.726-8.03c2.278-1.983 5.363-3.285 8.633-3.285 3.565 0 6.944 1.395 9.332 3.782l-9.239 7.533m-2.278 1.891-8.835 7.332a13.009 13.009 0 0 1-2.17-7.239c0-2.976.992-5.75 2.666-7.936l8.339 7.843m4.371.093 8.928-7.239a13.021 13.021 0 0 1 2.186 7.239c0 2.976-.992 5.75-2.682 7.936l-8.432-7.936m-2.186 1.891 8.727 8.122c-2.279 1.984-5.363 3.178-8.634 3.178-3.565 0-6.944-1.38-9.315-3.767l9.222-7.533m-63.183 76.679c0 4.262 3.069 9.02 11.114 9.02 10.307 0 21.126-8.431 21.126-17.158 0-5.859-4.96-9.13-11.114-9.13-9.625 0-21.126 8.138-21.126 17.268m-47.11-24.8c0 4.262 3.069 9.02 11.114 9.02 10.307 0 21.126-8.431 21.126-17.158 0-5.859-4.96-9.13-11.114-9.13-9.625 0-21.126 8.138-21.126 17.268" class="Note" style="stroke-width:.992001"/>
  <path d="M2519.842 202.399c0 4.262 3.069 9.02 11.114 9.02 10.307 0 21.126-8.431 21.126-17.158 0-5.859-4.96-9.13-11.114-9.13-9.625 0-21.126 8.138-21.126 17.268m47.11-24.8c0 4.262 3.069 9.02 11.114 9.02 10.307 0 21.126-8.431 21.126-17.158 0-5.859-4.96-9.13-11.114-9.13-9.625 0-21.126 8.138-21.126 17.268m298.743-69.937c-8.928 0-16.073 7.239-16.073 16.167a16.009 16.009 0 0 0 16.073 16.073c8.928 0 16.167-7.145 16.167-16.073s-7.239-16.167-16.167-16.167m.093 14.183-8.726-8.03c2.278-1.983 5.363-3.285 8.633-3.285 3.565 0 6.944 1.395 9.332 3.782l-9.239 7.533m-2.278 1.891-8.835 7.332a13.009 13.009 0 0 1-2.17-7.239c0-2.976.992-5.75 2.666-7.936l8.339 7.843m4.371.093 8.928-7.239a13.021 13.021 0 0 1 2.186 7.239c0 2.976-.992 5.75-2.682 7.936l-8.432-7.936m-2.186 1.891 8.727 8.122c-2.279 1.984-5.363 3.178-8.634 3.178-3.565 0-6.944-1.38-9.315-3.767l9.222-7.533M199.639 177.599c0 4.262 3.069 9.02 11.113 9.02 10.308 0 21.127-8.431 21.127-17.158 0-5.859-4.96-9.13-11.113-9.13-9.626 0-21.127 8.138-21.127 17.268m2273.083 0c0 4.262 3.069 9.02 11.114 9.02 10.307 0 21.126-8.431 21.126-17.158 0-5.859-4.96-9.13-11.114-9.13-9.625 0-21.126 8.138-21.126 17.268" class="Note" style="stroke-width:.992001"/>
  <path d="M2472.722 202.399c0 4.262 3.069 9.02 11.114 9.02 10.307 0 21.126-8.431 21.126-17.158 0-5.859-4.96-9.13-11.114-9.13-9.625 0-21.126 8.138-21.126 17.268m535.6-24.8c0 4.262 3.069 9.02 11.114 9.02 10.307 0 21.126-8.431 21.126-17.158 0-5.859-4.96-9.13-11.114-9.13-9.625 0-21.126 8.138-21.126 17.268m-347.15 24.8c0 4.262 3.069 9.02 11.114 9.02 10.307 0 21.126-8.431 21.126-17.158 0-5.859-4.96-9.13-11.114-9.13-9.625 0-21.126 8.138-21.126 17.268" class="Note" style="stroke-width:.992001"/>
  <path d="M2661.172 177.599c0 4.262 3.069 9.02 11.114 9.02 10.307 0 21.126-8.431 21.126-17.158 0-5.859-4.96-9.13-11.114-9.13-9.625 0-21.126 8.138-21.126 17.268m-235.56 0c0 4.262 3.069 9.02 11.114 9.02 10.307 0 21.126-8.431 21.126-17.158 0-5.859-4.96-9.13-11.114-9.13-9.625 0-21.126 8.138-21.126 17.268m473.11 0c0 4.262 3.069 9.02 11.114 9.02 10.307 0 21.126-8.431 21.126-17.158 0-5.859-4.96-9.13-11.114-9.13-9.625 0-21.126 8.138-21.126 17.268" class="Note" style="stroke-width:.992001"/>
  <path d="M2425.612 202.399c0 4.262 3.069 9.02 11.114 9.02 10.307 0 21.126-8.431 21.126-17.158 0-5.859-4.96-9.13-11.114-9.13-9.625 0-21.126 8.138-21.126 17.268m504.854-125.287c.295-.202.496-.604.496-.992v-.108c0-.388-.201-.698-.387-.884l-1.194-1.194c-.294-.201-.604-.402-.992-.402-.294 0-.698.108-.899.294l-12.601 10.028-12.695-10.028c-.202-.186-.589-.294-.899-.294-.388 0-.589.201-.884.402l-1.286 1.194c-.202.186-.403.589-.403.992 0 .388.201.79.496.992l12.105 9.517-12.105 9.517c-.294.202-.496.604-.496.992 0 .31.201.698.403.899l1.178 1.287c.201.294.604.402.992.402.31 0 .697-.108.899-.294l12.694-10.028 12.602 10.028c.202.186.605.294.9.294.387 0 .79-.108.991-.402l1.194-1.287c.186-.201.387-.589.387-.899 0-.388-.201-.79-.496-.992l-12.105-9.517 12.105-9.517m-127.954 100.487c0 4.262 3.069 9.02 11.114 9.02 10.307 0 21.126-8.431 21.126-17.158 0-5.859-4.96-9.13-11.114-9.13-9.625 0-21.126 8.138-21.126 17.268m-1557.82 0c0 4.262 3.069 9.02 11.114 9.02 10.307 0 21.126-8.431 21.126-17.158 0-5.859-4.96-9.13-11.114-9.13-9.625 0-21.126 8.138-21.126 17.268m1873.23 0c0 4.262 3.069 9.02 11.114 9.02 10.307 0 21.126-8.431 21.126-17.158 0-5.859-4.96-9.13-11.114-9.13-9.625 0-21.126 8.138-21.126 17.268m-2442.603 0c0 4.262 3.069 9.02 11.113 9.02 10.308 0 21.127-8.431 21.127-17.158 0-5.859-4.96-9.13-11.113-9.13-9.626 0-21.127 8.138-21.127 17.268m89.265 0c0 4.262 3.069 9.02 11.113 9.02 10.308 0 21.127-8.431 21.127-17.158 0-5.859-4.96-9.13-11.113-9.13-9.626 0-21.127 8.138-21.127 17.268m757.818 0c0 4.262 3.069 9.02 11.114 9.02 10.307 0 21.126-8.431 21.126-17.158 0-5.859-4.96-9.13-11.114-9.13-9.625 0-21.126 8.138-21.126 17.268m-47.11 0c0 4.262 3.069 9.02 11.114 9.02 10.307 0 21.126-8.431 21.126-17.158 0-5.859-4.96-9.13-11.114-9.13-9.625 0-21.126 8.138-21.126 17.268m-1228.541 0c0 4.262 3.069 9.02 11.113 9.02 10.308 0 21.127-8.431 21.127-17.158 0-5.859-4.96-9.13-11.113-9.13-9.626 0-21.127 8.138-21.127 17.268m2816.371 0c0 4.262 3.069 9.02 11.114 9.02 10.307 0 21.126-8.431 21.126-17.158 0-5.859-4.96-9.13-11.114-9.13-9.625 0-21.126 8.138-21.126 17.268m-1634.94 0c0 4.262 3.069 9.02 11.114 9.02 10.307 0 21.126-8.431 21.126-17.158 0-5.859-4.96-9.13-11.114-9.13-9.625 0-21.126 8.138-21.126 17.268m-616.49 0c0 4.262 3.069 9.02 11.113 9.02 10.308 0 21.127-8.431 21.127-17.158 0-5.859-4.96-9.13-11.113-9.13-9.626 0-21.127 8.138-21.127 17.268m480.11 0c0 4.262 3.069 9.02 11.114 9.02 10.307 0 21.126-8.431 21.126-17.158 0-5.859-4.96-9.13-11.114-9.13-9.625 0-21.126 8.138-21.126 17.268m-571.851 0c0 4.262 3.069 9.02 11.113 9.02 10.308 0 21.127-8.431 21.127-17.158 0-5.859-4.96-9.13-11.113-9.13-9.626 0-21.127 8.138-21.127 17.268m162.411 0c0 4.262 3.069 9.02 11.113 9.02 10.308 0 21.127-8.431 21.127-17.158 0-5.859-4.96-9.13-11.113-9.13-9.626 0-21.127 8.138-21.127 17.268M3094.866 77.112c.295-.202.496-.604.496-.992v-.108c0-.388-.201-.698-.387-.884l-1.194-1.194c-.294-.201-.604-.402-.992-.402-.294 0-.698.108-.899.294l-12.601 10.028-12.695-10.028c-.202-.186-.589-.294-.899-.294-.388 0-.589.201-.884.402l-1.286 1.194c-.202.186-.403.589-.403.992 0 .388.202.79.496.992l12.105 9.517-12.105 9.517c-.294.202-.496.604-.496.992 0 .31.202.698.403.899l1.178 1.287c.201.294.604.402.992.402.31 0 .697-.108.899-.294l12.694-10.028 12.602 10.028c.202.186.605.294.9.294.387 0 .79-.108.991-.402l1.194-1.287c.186-.201.387-.589.387-.899 0-.388-.201-.79-.496-.992l-12.105-9.517 12.105-9.517m-2196.431 30.55c-8.927 0-16.073 7.239-16.073 16.167a16.009 16.009 0 0 0 16.073 16.073c8.929 0 16.167-7.145 16.167-16.073s-7.238-16.167-16.167-16.167m.094 14.183-8.727-8.03c2.279-1.983 5.363-3.285 8.634-3.285 3.565 0 6.944 1.395 9.33 3.782l-9.237 7.533m-2.279 1.891-8.835 7.332a13.009 13.009 0 0 1-2.17-7.239c0-2.976.992-5.75 2.666-7.936l8.34 7.843m4.37.093 8.928-7.239a13.021 13.021 0 0 1 2.186 7.239c0 2.976-.992 5.75-2.682 7.936l-8.432-7.936m-2.185 1.891 8.726 8.122c-2.278 1.984-5.363 3.178-8.633 3.178-3.565 0-6.944-1.38-9.316-3.767l9.223-7.533m31.036 51.879c0 4.262 3.069 9.02 11.113 9.02 10.308 0 21.127-8.431 21.127-17.158 0-5.859-4.96-9.13-11.113-9.13-9.626 0-21.127 8.138-21.127 17.268m268.11 0c0 4.262 3.069 9.02 11.114 9.02 10.307 0 21.126-8.431 21.126-17.158 0-5.859-4.96-9.13-11.113-9.13-9.626 0-21.127 8.138-21.127 17.268m-903.718 0c0 4.262 3.069 9.02 11.113 9.02 10.308 0 21.127-8.431 21.127-17.158 0-5.859-4.96-9.13-11.113-9.13-9.626 0-21.127 8.138-21.127 17.268m682.728 0c0 4.262 3.069 9.02 11.113 9.02 10.308 0 21.127-8.431 21.127-17.158 0-5.859-4.96-9.13-11.113-9.13-9.626 0-21.127 8.138-21.127 17.268m-635.616 0c0 4.262 3.069 9.02 11.113 9.02 10.308 0 21.127-8.431 21.127-17.158 0-5.859-4.96-9.13-11.113-9.13-9.626 0-21.127 8.138-21.127 17.268m689.766 0c0 4.262 3.069 9.02 11.114 9.02 10.307 0 21.126-8.431 21.126-17.158 0-5.859-4.96-9.13-11.114-9.13-9.625 0-21.126 8.138-21.126 17.268m779.61 0c0 4.262 3.069 9.02 11.114 9.02 10.307 0 21.126-8.431 21.126-17.158 0-5.859-4.96-9.13-11.114-9.13-9.625 0-21.126 8.138-21.126 17.268m173.084-63.287c.295-.202.496-.604.496-.992v-.108c0-.388-.201-.698-.387-.884l-1.194-1.194c-.294-.201-.604-.402-.992-.402-.294 0-.698.108-.899.294l-12.602 10.028-12.694-10.028c-.202-.186-.589-.294-.899-.294-.388 0-.589.201-.884.402l-1.286 1.194c-.202.186-.403.589-.403.992 0 .388.202.79.496.992l12.105 9.517-12.105 9.517c-.294.202-.496.604-.496.992 0 .31.202.698.403.899l1.178 1.287c.202.294.605.402.992.402.31 0 .698-.108.899-.294l12.694-10.028 12.602 10.028c.202.186.605.294.9.294.387 0 .79-.108.991-.402l1.194-1.287c.186-.201.387-.589.387-.899 0-.388-.201-.79-.496-.992l-12.105-9.517 12.105-9.517m-31.744 63.287c0 4.262 3.069 9.02 11.114 9.02 10.307 0 21.126-8.431 21.126-17.158 0-5.859-4.96-9.13-11.114-9.13-9.625 0-21.126 8.138-21.126 17.268m-15.366-63.287c.295-.202.496-.604.496-.992v-.108c0-.388-.201-.698-.387-.884l-1.194-1.194c-.294-.201-.604-.402-.992-.402-.294 0-.698.108-.899.294l-12.601 10.028-12.695-10.028c-.202-.186-.589-.294-.899-.294-.388 0-.589.201-.883.402l-1.287 1.194c-.201.186-.403.589-.403.992 0 .388.202.79.496.992l12.106 9.517-12.106 9.517c-.294.202-.496.604-.496.992 0 .31.202.698.403.899l1.178 1.287c.202.294.605.402.992.402.31 0 .698-.108.899-.294l12.694-10.028 12.602 10.028c.202.186.605.294.9.294.387 0 .79-.108.991-.402l1.194-1.287c.186-.201.387-.589.387-.899 0-.388-.201-.79-.496-.992l-12.105-9.517 12.105-9.517M486.87 177.599c0 4.262 3.069 9.02 11.113 9.02 10.308 0 21.127-8.431 21.127-17.158 0-5.859-4.96-9.13-11.113-9.13-9.626 0-21.127 8.138-21.127 17.268m1541.196-63.287c.295-.202.496-.604.496-.992v-.108c0-.388-.201-.698-.387-.884l-1.194-1.194c-.294-.201-.604-.402-.992-.402-.294 0-.698.108-.899.294l-12.601 10.028-12.695-10.028c-.202-.186-.589-.294-.899-.294-.388 0-.589.201-.883.402l-1.287 1.194c-.201.186-.403.589-.403.992 0 .388.202.79.496.992l12.106 9.517-12.106 9.517c-.294.202-.496.604-.496.992 0 .31.202.698.403.899l1.178 1.287c.202.294.605.402.992.402.31 0 .698-.108.899-.294l12.694-10.028 12.602 10.028c.202.186.605.294.9.294.387 0 .79-.108.991-.402l1.194-1.287c.186-.201.387-.589.387-.899 0-.388-.201-.79-.496-.992l-12.105-9.517 12.105-9.517M533.982 177.599c0 4.262 3.069 9.02 11.113 9.02 10.308 0 21.127-8.431 21.127-17.158 0-5.859-4.96-9.13-11.113-9.13-9.626 0-21.127 8.138-21.127 17.268m1370.6 0c0 4.262 3.069 9.02 11.114 9.02 10.307 0 21.126-8.431 21.126-17.158 0-5.859-4.96-9.13-11.113-9.13-9.626 0-21.127 8.138-21.127 17.268m-15.366-63.287c.295-.202.496-.604.496-.992v-.108c0-.388-.201-.698-.387-.884l-1.194-1.194c-.294-.201-.604-.402-.992-.402-.294 0-.698.108-.899.294l-12.602 10.028-12.694-10.028c-.202-.186-.589-.294-.899-.294-.388 0-.589.201-.884.402l-1.286 1.194c-.202.186-.403.589-.403.992 0 .388.202.79.496.992l12.105 9.517-12.105 9.517c-.294.202-.496.604-.496.992 0 .31.202.698.403.899l1.178 1.287c.202.294.605.402.992.402.31 0 .698-.108.899-.294l12.694-10.028 12.602 10.028c.202.186.605.294.9.294.387 0 .79-.108.991-.402l1.194-1.287c.186-.201.387-.589.387-.899 0-.388-.201-.79-.496-.992l-12.105-9.517 12.105-9.517m-31.744 63.287c0 4.262 3.069 9.02 11.114 9.02 10.307 0 21.126-8.431 21.126-17.158 0-5.859-4.96-9.13-11.114-9.13-9.625 0-21.126 8.138-21.126 17.268m199.563-69.937c-8.927 0-16.073 7.239-16.073 16.167a16.009 16.009 0 0 0 16.073 16.073c8.929 0 16.167-7.145 16.167-16.073s-7.239-16.167-16.167-16.167m.094 14.183-8.727-8.03c2.278-1.983 5.363-3.285 8.633-3.285 3.565 0 6.944 1.395 9.332 3.782l-9.239 7.533m-2.278 1.891-8.835 7.332a13.009 13.009 0 0 1-2.17-7.239c0-2.976.992-5.75 2.666-7.936l8.339 7.843m4.371.093 8.928-7.239a13.021 13.021 0 0 1 2.186 7.239c0 2.976-.992 5.75-2.682 7.936l-8.432-7.936m-2.186 1.891 8.727 8.122c-2.279 1.984-5.363 3.178-8.634 3.178-3.565 0-6.944-1.38-9.315-3.767l9.222-7.533m-1661.91 51.879c0 4.262 3.069 9.02 11.113 9.02 10.308 0 21.127-8.431 21.127-17.158 0-5.859-4.96-9.13-11.113-9.13-9.626 0-21.127 8.138-21.127 17.268m233.082 0c0 4.262 3.069 9.02 11.113 9.02 10.308 0 21.127-8.431 21.127-17.158 0-5.859-4.96-9.13-11.113-9.13-9.626 0-21.127 8.138-21.127 17.268m1459.865 0c0 4.262 3.069 9.02 11.114 9.02 10.307 0 21.126-8.431 21.126-17.158 0-5.859-4.96-9.13-11.114-9.13-9.625 0-21.126 8.138-21.126 17.268m-245.976-63.287c.295-.202.496-.604.496-.992v-.108c0-.388-.201-.698-.387-.884l-1.194-1.194c-.294-.201-.604-.402-.992-.402-.294 0-.698.108-.899.294l-12.601 10.028-12.695-10.028c-.202-.186-.589-.294-.899-.294-.388 0-.589.201-.883.402l-1.287 1.194c-.202.186-.403.589-.403.992 0 .388.202.79.496.992l12.106 9.517-12.106 9.517c-.294.202-.496.604-.496.992 0 .31.202.698.403.899l1.178 1.287c.202.294.605.402.992.402.31 0 .698-.108.899-.294l12.694-10.028 12.602 10.028c.202.186.605.294.9.294.387 0 .79-.108.991-.402l1.194-1.287c.186-.201.387-.589.387-.899 0-.388-.201-.79-.496-.992l-12.105-9.517 12.105-9.517m1307.57-37.2c.295-.202.496-.604.496-.992v-.108c0-.388-.201-.698-.387-.884l-1.194-1.194c-.294-.201-.604-.402-.992-.402-.294 0-.697.108-.899.294l-12.601 10.028-12.695-10.028c-.202-.186-.589-.294-.899-.294-.388 0-.589.201-.883.402l-1.287 1.194c-.202.186-.403.589-.403.992 0 .388.202.79.496.992l12.105 9.517-12.105 9.517c-.294.202-.496.604-.496.992 0 .31.202.698.403.899l1.178 1.287c.201.294.604.402.992.402.31 0 .698-.108.899-.294l12.694-10.028 12.602 10.028c.202.186.605.294.9.294.387 0 .79-.108.991-.402l1.194-1.287c.186-.201.387-.589.387-.899 0-.388-.201-.79-.496-.992l-12.105-9.517 12.105-9.517m-441.374 150.087c0 4.262 3.069 9.02 11.114 9.02 10.307 0 21.126-8.431 21.126-17.158 0-5.859-4.96-9.13-11.114-9.13-9.625 0-21.126 8.138-21.126 17.268M961.216 238.312c.295-.202.496-.604.496-.992v-.108c0-.388-.201-.698-.387-.884l-1.194-1.194c-.294-.201-.604-.402-.992-.402-.294 0-.697.108-.899.294l-12.601 10.028-12.695-10.028c-.201-.186-.589-.294-.899-.294-.387 0-.589.201-.883.402l-1.287 1.194c-.202.186-.403.589-.403.992 0 .388.201.79.496.992l12.105 9.517-12.105 9.517c-.295.202-.496.604-.496.992 0 .31.201.698.403.899l1.178 1.287c.202.294.605.402.992.402.31 0 .698-.108.899-.294l12.695-10.028 12.601 10.028c.201.186.605.294.9.294.387 0 .79-.108.991-.402l1.194-1.287c.186-.201.387-.589.387-.899 0-.388-.201-.79-.496-.992l-12.105-9.517 12.105-9.517m-489.714 0c.295-.202.496-.604.496-.992v-.108c0-.388-.201-.698-.387-.884l-1.194-1.194c-.294-.201-.604-.402-.992-.402-.294 0-.698.108-.899.294l-12.601 10.028-12.695-10.028c-.201-.186-.589-.294-.899-.294-.387 0-.589.201-.883.402l-1.287 1.194c-.202.186-.403.589-.403.992 0 .388.202.79.496.992l12.105 9.517-12.105 9.517c-.295.202-.496.604-.496.992 0 .31.202.698.403.899l1.178 1.287c.202.294.605.402.992.402.31 0 .698-.108.899-.294l12.695-10.028 12.601 10.028c.202.186.605.294.9.294.387 0 .79-.108.991-.402l1.194-1.287c.186-.201.387-.589.387-.899 0-.388-.201-.79-.496-.992l-12.105-9.517 12.105-9.517m2427.22-11.113c0 4.262 3.069 9.02 11.114 9.02 10.307 0 21.126-8.431 21.126-17.158 0-5.859-4.96-9.13-11.114-9.13-9.625 0-21.126 8.138-21.126 17.268m219.2 0c0 4.262 3.069 9.02 11.114 9.02 10.307 0 21.126-8.431 21.126-17.158 0-5.859-4.96-9.13-11.114-9.13-9.625 0-21.126 8.138-21.126 17.268m-362.52 0c0 4.262 3.069 9.02 11.114 9.02 10.307 0 21.126-8.431 21.126-17.158 0-5.859-4.96-9.13-11.114-9.13-9.625 0-21.126 8.138-21.126 17.268m-1908.37 0c0 4.262 3.069 9.02 11.113 9.02 10.308 0 21.127-8.431 21.127-17.158 0-5.859-4.96-9.13-11.113-9.13-9.626 0-21.127 8.138-21.127 17.268" class="Note" style="stroke-width:.992001"/>
  <path d="M878.776 238.312c.295-.202.496-.604.496-.992v-.108c0-.388-.201-.698-.387-.884l-1.194-1.194c-.294-.201-.604-.402-.992-.402-.294 0-.697.108-.899.294l-12.601 10.028-12.695-10.028c-.201-.186-.589-.294-.899-.294-.387 0-.589.201-.883.402l-1.287 1.194c-.202.186-.403.589-.403.992 0 .388.201.79.496.992l12.105 9.517-12.105 9.517c-.295.202-.496.604-.496.992 0 .31.201.698.403.899l1.178 1.287c.202.294.605.402.992.402.31 0 .698-.108.899-.294l12.695-10.028 12.601 10.028c.201.186.605.294.9.294.387 0 .79-.108.991-.402l1.194-1.287c.186-.201.387-.589.387-.899 0-.388-.201-.79-.496-.992l-12.105-9.517 12.105-9.517m-82.448 0c.295-.202.496-.604.496-.992v-.108c0-.388-.201-.698-.387-.884l-1.194-1.194c-.294-.201-.604-.402-.992-.402-.294 0-.697.108-.899.294l-12.601 10.028-12.695-10.028c-.201-.186-.589-.294-.899-.294-.387 0-.589.201-.883.402l-1.287 1.194c-.202.186-.403.589-.403.992 0 .388.202.79.496.992l12.105 9.517-12.105 9.517c-.295.202-.496.604-.496.992 0 .31.202.698.403.899l1.178 1.287c.202.294.605.402.992.402.31 0 .698-.108.899-.294l12.695-10.028 12.601 10.028c.201.186.605.294.9.294.387 0 .79-.108.991-.402l1.194-1.287c.186-.201.387-.589.387-.899 0-.388-.201-.79-.496-.992l-12.105-9.517 12.105-9.517m2006.184-11.113c0 4.262 3.069 9.02 11.114 9.02 10.307 0 21.126-8.431 21.126-17.158 0-5.859-4.96-9.13-11.114-9.13-9.625 0-21.126 8.138-21.126 17.268M565.726 238.312c.295-.202.496-.604.496-.992v-.108c0-.388-.201-.698-.387-.884l-1.194-1.194c-.294-.201-.604-.402-.992-.402-.294 0-.697.108-.899.294l-12.601 10.028-12.695-10.028c-.201-.186-.589-.294-.899-.294-.387 0-.589.201-.883.402l-1.287 1.194c-.202.186-.403.589-.403.992 0 .388.201.79.496.992l12.105 9.517-12.105 9.517c-.295.202-.496.604-.496.992 0 .31.201.698.403.899l1.178 1.287c.202.294.605.402.992.402.31 0 .698-.108.899-.294l12.695-10.028 12.601 10.028c.201.186.605.294.9.294.387 0 .79-.108.991-.402l1.194-1.287c.186-.201.387-.589.387-.899 0-.388-.201-.79-.496-.992l-12.105-9.517 12.105-9.517m15.369-11.113c0 4.262 3.069 9.02 11.113 9.02 10.308 0 21.127-8.431 21.127-17.158 0-5.859-4.96-9.13-11.113-9.13-9.626 0-21.127 8.138-21.127 17.268m1506.977 0c0 4.262 3.069 9.02 11.114 9.02 10.307 0 21.126-8.431 21.126-17.158 0-5.859-4.96-9.13-11.114-9.13-9.625 0-21.126 8.138-21.126 17.268M659.951 238.312c.295-.202.496-.604.496-.992v-.108c0-.388-.201-.698-.387-.884l-1.194-1.194c-.294-.201-.604-.402-.992-.402-.294 0-.698.108-.899.294l-12.601 10.028-12.695-10.028c-.201-.186-.589-.294-.899-.294-.387 0-.589.201-.883.402l-1.287 1.194c-.202.186-.403.589-.403.992 0 .388.201.79.496.992l12.105 9.517-12.105 9.517c-.295.202-.496.604-.496.992 0 .31.201.698.403.899l1.178 1.287c.202.294.605.402.992.402.31 0 .698-.108.899-.294l12.695-10.028 12.601 10.028c.201.186.605.294.9.294.387 0 .79-.108.991-.402l1.194-1.287c.186-.201.387-.589.387-.899 0-.388-.201-.79-.496-.992l-12.105-9.517 12.105-9.517m-334.343 0c.295-.202.496-.604.496-.992v-.108c0-.388-.201-.698-.387-.884l-1.194-1.194c-.294-.201-.604-.402-.992-.402-.294 0-.698.108-.899.294l-12.601 10.028-12.695-10.028c-.201-.186-.589-.294-.899-.294-.387 0-.589.201-.883.402l-1.287 1.194c-.202.186-.403.589-.403.992 0 .388.202.79.496.992l12.105 9.517-12.105 9.517c-.295.202-.496.604-.496.992 0 .31.202.698.403.899l1.178 1.287c.202.294.605.402.992.402.31 0 .698-.108.899-.294l12.695-10.028 12.601 10.028c.202.186.605.294.9.294.387 0 .79-.108.991-.402l1.194-1.287c.186-.201.387-.589.387-.899 0-.388-.201-.79-.496-.992l-12.105-9.517 12.105-9.517" class="Note" style="stroke-width:.992001"/>
  <path d="M2119.816 238.312c.295-.202.496-.604.496-.992v-.108c0-.388-.201-.698-.387-.884l-1.194-1.194c-.294-.201-.604-.402-.992-.402-.294 0-.698.108-.899.294l-12.602 10.028-12.694-10.028c-.202-.186-.589-.294-.899-.294-.388 0-.589.201-.884.402l-1.286 1.194c-.202.186-.403.589-.403.992 0 .388.201.79.496.992l12.105 9.517-12.105 9.517c-.295.202-.496.604-.496.992 0 .31.201.698.403.899l1.178 1.287c.201.294.604.402.992.402.31 0 .697-.108.899-.294l12.694-10.028 12.602 10.028c.201.186.605.294.9.294.387 0 .79-.108.991-.402l1.194-1.287c.186-.201.387-.589.387-.899 0-.388-.201-.79-.496-.992l-12.105-9.517 12.105-9.517m888.506-11.113c0 4.262 3.069 9.02 11.114 9.02 10.307 0 21.126-8.431 21.126-17.158 0-5.859-4.96-9.13-11.114-9.13-9.625 0-21.126 8.138-21.126 17.268m-841.396 11.113c.295-.202.496-.604.496-.992v-.108c0-.388-.201-.698-.387-.884l-1.194-1.194c-.294-.201-.604-.402-.992-.402-.294 0-.698.108-.899.294l-12.601 10.028-12.695-10.028c-.202-.186-.589-.294-.899-.294-.388 0-.589.201-.884.402l-1.286 1.194c-.202.186-.403.589-.403.992 0 .388.202.79.496.992l12.105 9.517-12.105 9.517c-.294.202-.496.604-.496.992 0 .31.202.698.403.899l1.178 1.287c.201.294.604.402.992.402.31 0 .697-.108.899-.294l12.694-10.028 12.602 10.028c.202.186.605.294.9.294.387 0 .79-.108.991-.402l1.194-1.287c.186-.201.387-.589.387-.899 0-.388-.201-.79-.496-.992l-12.105-9.517 12.105-9.517" class="Note" style="stroke-width:.992001"/>
  <path d="M2135.182 227.199c0 4.262 3.069 9.02 11.114 9.02 10.307 0 21.126-8.431 21.126-17.158 0-5.859-4.96-9.13-11.114-9.13-9.625 0-21.126 8.138-21.126 17.268m78.854 11.113c.295-.202.496-.604.496-.992v-.108c0-.388-.201-.698-.387-.884l-1.194-1.194c-.294-.201-.604-.402-.992-.402-.294 0-.697.108-.899.294l-12.601 10.028-12.695-10.028c-.202-.186-.589-.294-.899-.294-.388 0-.589.201-.883.402l-1.287 1.194c-.202.186-.403.589-.403.992 0 .388.202.79.496.992l12.105 9.517-12.105 9.517c-.294.202-.496.604-.496.992 0 .31.202.698.403.899l1.178 1.287c.201.294.604.402.992.402.31 0 .698-.108.899-.294l12.694-10.028 12.602 10.028c.202.186.605.294.9.294.387 0 .79-.108.991-.402l1.194-1.287c.186-.201.387-.589.387-.899 0-.388-.201-.79-.496-.992l-12.105-9.517 12.105-9.517" class="Note" style="stroke-width:.992001"/>
  <path d="M2182.292 227.199c0 4.262 3.069 9.02 11.114 9.02 10.307 0 21.126-8.431 21.126-17.158 0-5.859-4.96-9.13-11.114-9.13-9.625 0-21.126 8.138-21.126 17.268m-1982.653 0c0 4.262 3.069 9.02 11.113 9.02 10.308 0 21.127-8.431 21.127-17.158 0-5.859-4.96-9.13-11.113-9.13-9.626 0-21.127 8.138-21.127 17.268" class="Note" style="stroke-width:.992001"/>
  <path d="M231.383 238.312c.295-.202.496-.604.496-.992v-.108c0-.388-.201-.698-.387-.884l-1.194-1.194c-.294-.201-.604-.402-.992-.402-.294 0-.698.108-.899.294l-12.601 10.028-12.695-10.028c-.201-.186-.589-.294-.899-.294-.387 0-.589.201-.883.402l-1.287 1.194c-.202.186-.403.589-.403.992 0 .388.202.79.496.992l12.105 9.517-12.105 9.517c-.294.202-.496.604-.496.992 0 .31.202.698.403.899l1.178 1.287c.202.294.605.402.992.402.31 0 .698-.108.899-.294l12.695-10.028 12.601 10.028c.201.186.605.294.9.294.387 0 .79-.108.991-.402l1.194-1.287c.186-.201.387-.589.387-.899 0-.388-.201-.79-.496-.992l-12.105-9.517 12.105-9.517m1578.969-11.113c0 4.262 3.069 9.02 11.114 9.02 10.307 0 21.126-8.431 21.126-17.158 0-5.859-4.96-9.13-11.114-9.13-9.625 0-21.126 8.138-21.126 17.268m-196.2 0c0 4.262 3.069 9.02 11.114 9.02 10.307 0 21.126-8.431 21.126-17.158 0-5.859-4.96-9.13-11.114-9.13-9.625 0-21.126 8.138-21.126 17.268m811.46 0c0 4.262 3.069 9.02 11.114 9.02 10.307 0 21.126-8.431 21.126-17.158 0-5.859-4.96-9.13-11.114-9.13-9.625 0-21.126 8.138-21.126 17.268m-856.09 0c0 4.262 3.069 9.02 11.114 9.02 10.307 0 21.126-8.431 21.126-17.158 0-5.859-4.96-9.13-11.114-9.13-9.625 0-21.126 8.138-21.126 17.268m-15.376 11.113c.295-.202.496-.604.496-.992v-.108c0-.388-.201-.698-.387-.884l-1.194-1.194c-.294-.201-.604-.402-.992-.402-.294 0-.698.108-.899.294l-12.602 10.028-12.694-10.028c-.202-.186-.589-.294-.899-.294-.388 0-.589.201-.883.402l-1.287 1.194c-.202.186-.403.589-.403.992 0 .388.202.79.496.992l12.106 9.517-12.106 9.517c-.294.202-.496.604-.496.992 0 .31.202.698.403.899l1.178 1.287c.202.294.605.402.992.402.31 0 .698-.108.899-.294l12.694-10.028 12.602 10.028c.202.186.605.294.9.294.387 0 .79-.108.991-.402l1.194-1.287c.186-.201.387-.589.387-.899 0-.388-.201-.79-.496-.992l-12.105-9.517 12.105-9.517m918.576-11.113c0 4.262 3.069 9.02 11.114 9.02 10.307 0 21.126-8.431 21.126-17.158 0-5.859-4.96-9.13-11.114-9.13-9.625 0-21.126 8.138-21.126 17.268m-1012.796 11.113c.295-.202.496-.604.496-.992v-.108c0-.388-.201-.698-.387-.884l-1.194-1.194c-.294-.201-.604-.402-.992-.402-.294 0-.698.108-.899.294l-12.602 10.028-12.694-10.028c-.202-.186-.589-.294-.899-.294-.388 0-.589.201-.884.402l-1.286 1.194c-.202.186-.403.589-.403.992 0 .388.202.79.496.992l12.105 9.517-12.105 9.517c-.294.202-.496.604-.496.992 0 .31.202.698.403.899l1.178 1.287c.202.294.605.402.992.402.31 0 .698-.108.899-.294l12.694-10.028 12.602 10.028c.202.186.605.294.9.294.387 0 .79-.108.991-.402l1.194-1.287c.186-.201.387-.589.387-.899 0-.388-.201-.79-.496-.992l-12.105-9.517 12.105-9.517m-76.374-11.113c0 4.262 3.069 9.02 11.114 9.02 10.307 0 21.126-8.431 21.126-17.158 0-5.859-4.96-9.13-11.114-9.13-9.625 0-21.126 8.138-21.126 17.268m1136.29 0c0 4.262 3.069 9.02 11.114 9.02 10.307 0 21.126-8.431 21.126-17.158 0-5.859-4.96-9.13-11.114-9.13-9.625 0-21.126 8.138-21.126 17.268m-1180.92 0c0 4.262 3.069 9.02 11.114 9.02 10.307 0 21.126-8.431 21.126-17.158 0-5.859-4.96-9.13-11.114-9.13-9.625 0-21.126 8.138-21.126 17.268m-15.376 11.113c.295-.202.496-.604.496-.992v-.108c0-.388-.201-.698-.387-.884l-1.194-1.194c-.294-.201-.604-.402-.992-.402-.294 0-.698.108-.899.294l-12.601 10.028-12.695-10.028c-.202-.186-.589-.294-.899-.294-.388 0-.589.201-.883.402l-1.287 1.194c-.201.186-.403.589-.403.992 0 .388.202.79.496.992l12.106 9.517-12.106 9.517c-.294.202-.496.604-.496.992 0 .31.202.698.403.899l1.178 1.287c.202.294.605.402.992.402.31 0 .698-.108.899-.294l12.695-10.028 12.601 10.028c.202.186.605.294.9.294.387 0 .79-.108.991-.402l1.194-1.287c.186-.201.387-.589.387-.899 0-.388-.201-.79-.496-.992l-12.105-9.517 12.105-9.517m1243.406-11.113c0 4.262 3.069 9.02 11.114 9.02 10.307 0 21.126-8.431 21.126-17.158 0-5.859-4.96-9.13-11.114-9.13-9.625 0-21.126 8.138-21.126 17.268m-1369.37 0c0 4.262 3.069 9.02 11.114 9.02 10.307 0 21.126-8.431 21.126-17.158 0-5.859-4.96-9.13-11.113-9.13-9.626 0-21.127 8.138-21.127 17.268" class="Note" style="stroke-width:.992001"/>
  <path d="M1229.326 238.312c.295-.202.496-.604.496-.992v-.108c0-.388-.201-.698-.387-.884l-1.194-1.194c-.294-.201-.604-.402-.992-.402-.294 0-.698.108-.899.294l-12.601 10.028-12.695-10.028c-.202-.186-.589-.294-.899-.294-.388 0-.589.201-.883.402l-1.287 1.194c-.201.186-.403.589-.403.992 0 .388.202.79.496.992l12.106 9.517-12.106 9.517c-.294.202-.496.604-.496.992 0 .31.202.698.403.899l1.178 1.287c.202.294.605.402.992.402.31 0 .698-.108.899-.294l12.694-10.028 12.602 10.028c.202.186.605.294.9.294.387 0 .79-.108.991-.402l1.194-1.287c.186-.201.387-.589.387-.899 0-.388-.201-.79-.496-.992l-12.105-9.517 12.105-9.517m1833.796-11.113c0 4.262 3.069 9.02 11.114 9.02 10.307 0 21.126-8.431 21.126-17.158 0-5.859-4.96-9.13-11.114-9.13-9.625 0-21.126 8.138-21.126 17.268m-109.6 0c0 4.262 3.069 9.02 11.114 9.02 10.307 0 21.126-8.431 21.126-17.158 0-5.859-4.96-9.13-11.114-9.13-9.625 0-21.126 8.138-21.126 17.268m-292.35 0c0 4.262 3.069 9.02 11.114 9.02 10.307 0 21.126-8.431 21.126-17.158 0-5.859-4.96-9.13-11.114-9.13-9.625 0-21.126 8.138-21.126 17.268m-1684.58 0c0 4.262 3.069 9.02 11.113 9.02 10.308 0 21.127-8.431 21.127-17.158 0-5.859-4.96-9.13-11.113-9.13-9.626 0-21.127 8.138-21.127 17.268" class="Note" style="stroke-width:.992001"/>
  <path d="M19.887 160.827c-.698 0-1.287.605-1.287 1.287v47.43c0 .682.589 1.286 1.287 1.286h10.912c.697 0 1.286-.604 1.286-1.286v-47.43c0-.682-.589-1.287-1.286-1.287H19.887m21.436 0c-.698 0-1.302.605-1.302 1.287v47.43c0 .682.604 1.286 1.302 1.286h10.912c.698 0 1.287-.604 1.287-1.286v-47.43c0-.682-.59-1.287-1.287-1.287H41.323" class="Clef" style="stroke-width:.992001"/>
  <path d="M1157.461 165.4c-.79 2.17-2.774 9.316-7.641 9.316-6.448 0-7.843-3.968-13.19-3.968-.79 0-1.597.108-2.589.294 0 0 2.48-3.766 13.004-7.037 10.51-3.27 13.191-8.432 13.191-14.384 0-4.17-1.875-12.4-16.864-12.4-14.973 0-17.763 9.02-17.763 13.593 0 4.061 3.379 7.332 7.44 7.332a7.32 7.32 0 0 0 7.347-7.332c0-2.774-1.984-5.858-4.557-6.85-.31-.094-.698-.59-.698-1.086 0-.604.496-1.286 2.279-1.782.496-.202 1.891-.496 3.38-.496 5.641 0 6.741 3.472 6.741 8.525 0 11.61-13.794 14.09-19.545 22.723 0 0-2.976 4.154-2.976 8.82 0 4.665 2.387 4.96 3.565 4.96 1.597 0 3.286-1.287 3.286-3.07 0-.402-.108-.79-.31-1.286-.589-1.395-.79-2.48-.79-3.286 0-.294 0-.589.108-.884.093-.604.884-1.596 3.27-1.596 2.868 0 3.969 3.379 5.751 5.952 1.783 2.588 4.557 4.17 7.735 4.17 3.177 0 7.44-2.279 9.238-5.952 1.782-3.674 4.06-11.114 4.06-13.78 0-1.302-.79-1.891-1.689-1.891-.697 0-1.38.403-1.782 1.395m-16.57 57.83v7.332h-8.23c-.698 0-1.395.604-1.395 1.395v1.891c0 .79.697 1.38 1.395 1.38h30.055c.806 0 1.394-.59 1.394-1.38v-1.891c0-.79-.588-1.395-1.394-1.395h-8.82v-7.332h8.82c.806 0 1.394-.697 1.394-1.488v-1.89c0-.698-.588-1.38-1.394-1.38h-8.82v-15.779c0-.589-.294-1.085-.79-1.287l-1.194-.604c-.202-.093-.496-.186-.698-.186-.294.093-.697.186-.898.387l-9.022 8.231c-.294.31-.403.698-.403 1.1v8.138h-11.408s11.021-11.904 22.724-27.59c.403-.496.495-.992.495-1.38 0-.496-.201-.898-.294-.992l-2.186-2.185a1.497 1.497 0 0 0-.991-.403h-14.679c-.806 0-1.302.604-1.395 1.194 0 0-.496 7.346-3.069 15.375-2.588 8.045-5.564 13.005-8.137 16.663 0 0-.295.496-.295 1.1 0 .202 0 .388.093.59.403.697.992 1.782.992 1.782s.202.604 1.085.604h17.066M101.541 181.07v-42.656c0-.697-.496-1.193-1.193-1.193H90.52c-.202 0-.388.093-.59.201-.108.094-.294.295-.402.388l-11.113 19.25c-.093.201-.093.403-.093.589 0 .403.295.806.589.992l1.891 1.1c.202.093.403.202.589.202.403 0 .806-.31.992-.605l7.052-12.105v33.836h-7.548c-.682 0-1.178.497-1.178 1.194v2.17c0 .698.496 1.194 1.178 1.194h27.187c.698 0 1.1-.496 1.1-1.194v-2.17c0-.698-.402-1.194-1.1-1.194h-7.533m34.612-24.303c-6.06 0-8.23 1.783-9.626 3.271-.295-2.077-.496-3.674-.496-5.255 0-5.657 1.984-13.004 8.928-13.004 2.48 0 3.968.806 4.96 1.891-2.077.899-3.766 3.565-3.766 5.859 0 3.565 2.774 6.34 6.355 6.34 3.565 0 6.448-2.775 6.448-6.34v-.31c0-.884-.202-2.372-.605-3.162-1.286-3.58-5.456-8.835-15.376-8.835-8.928 0-15.376 8.525-17.36 13.097-.992 2.372-2.48 7.239-2.48 12.788 0 6.06 1.69 12.896 7.533 18.058 5.766 4.37 9.424 4.572 12.896 4.572 3.488 0 16.477-4.076 16.477-15.577 0-9.719-7.642-13.393-13.888-13.393m-3.674 24.8c-3.27 0-5.952-4.464-5.952-10.028 0-5.549 2.681-10.106 5.952-10.106 3.27 0 6.06 4.557 6.06 10.106 0 5.564-2.79 10.028-6.06 10.028m-30.938 48.112v-42.656c0-.697-.496-1.193-1.193-1.193H90.52c-.202 0-.388.093-.59.201-.108.094-.294.295-.402.388l-11.114 19.251c-.093.201-.093.403-.093.589 0 .403.295.806.589.992l1.891 1.1c.202.093.403.202.589.202.403 0 .806-.31.992-.605l7.052-12.105v33.836h-7.548c-.682 0-1.178.497-1.178 1.194v2.17c0 .698.496 1.194 1.178 1.194h27.187c.698 0 1.1-.496 1.1-1.194v-2.17c0-.698-.402-1.194-1.1-1.194h-7.533m34.613-24.304c-6.06 0-8.23 1.783-9.626 3.271-.295-2.077-.496-3.674-.496-5.255 0-5.657 1.984-13.004 8.928-13.004 2.48 0 3.968.806 4.96 1.891-2.077.899-3.766 3.565-3.766 5.859 0 3.565 2.774 6.34 6.355 6.34 3.565 0 6.448-2.775 6.448-6.34v-.31c0-.884-.202-2.372-.605-3.162-1.286-3.58-5.456-8.835-15.376-8.835-8.928 0-15.376 8.525-17.36 13.097-.992 2.372-2.48 7.239-2.48 12.788 0 6.06 1.69 12.896 7.533 18.058 5.766 4.37 9.424 4.572 12.896 4.572 3.488 0 16.477-4.076 16.477-15.577 0-9.719-7.642-13.393-13.888-13.393m-3.674 24.8c-3.27 0-5.952-4.464-5.952-10.028 0-5.549 2.681-10.106 5.952-10.106 3.27 0 6.06 4.557 6.06 10.106 0 5.564-2.79 10.028-6.06 10.028M2343.64 181.07v-42.656c0-.697-.497-1.193-1.195-1.193h-9.827c-.2 0-.387.093-.589.201-.108.094-.294.295-.403.388l-11.113 19.251c-.093.201-.093.403-.093.589 0 .403.294.806.589.992l1.891 1.1c.202.093.403.202.589.202.403 0 .806-.31.992-.605l7.053-12.105v33.836h-7.549c-.682 0-1.178.497-1.178 1.194v2.17c0 .698.496 1.194 1.178 1.194h27.187c.698 0 1.1-.496 1.1-1.194v-2.17c0-.698-.402-1.194-1.1-1.194h-7.533m34.608-24.304c-6.06 0-8.23 1.783-9.625 3.271-.294-2.077-.496-3.674-.496-5.255 0-5.657 1.984-13.004 8.928-13.004 2.48 0 3.968.806 4.96 1.891-2.077.899-3.767 3.565-3.767 5.859 0 3.565 2.775 6.34 6.356 6.34 3.564 0 6.448-2.775 6.448-6.34v-.31c0-.884-.202-2.372-.605-3.162-1.287-3.58-5.456-8.835-15.376-8.835-8.928 0-15.376 8.525-17.36 13.097-.992 2.372-2.48 7.239-2.48 12.788 0 6.06 1.69 12.896 7.533 18.058 5.766 4.37 9.424 4.572 12.896 4.572 3.488 0 16.476-4.076 16.476-15.577 0-9.719-7.641-13.393-13.888-13.393m-3.673 24.8c-3.27 0-5.952-4.464-5.952-10.028 0-5.549 2.681-10.106 5.952-10.106 3.27 0 6.06 4.557 6.06 10.106 0 5.564-2.79 10.028-6.06 10.028m-30.934 48.112v-42.656c0-.697-.497-1.193-1.195-1.193h-9.827c-.2 0-.387.093-.589.201-.108.094-.294.295-.403.388l-11.113 19.251c-.093.201-.093.403-.093.589 0 .403.294.806.589.992l1.891 1.1c.202.093.403.202.589.202.403 0 .806-.31.992-.605l7.053-12.105v33.836h-7.549c-.682 0-1.178.497-1.178 1.194v2.17c0 .698.496 1.194 1.178 1.194h27.187c.698 0 1.1-.496 1.1-1.194v-2.17c0-.698-.402-1.194-1.1-1.194h-7.533m34.608-24.304c-6.06 0-8.23 1.783-9.625 3.271-.294-2.077-.496-3.674-.496-5.255 0-5.657 1.984-13.004 8.928-13.004 2.48 0 3.968.806 4.96 1.891-2.077.899-3.767 3.565-3.767 5.859 0 3.565 2.775 6.34 6.356 6.34 3.564 0 6.448-2.775 6.448-6.34v-.31c0-.884-.202-2.372-.605-3.162-1.287-3.58-5.456-8.835-15.376-8.835-8.928 0-15.376 8.525-17.36 13.097-.992 2.372-2.48 7.239-2.48 12.788 0 6.06 1.69 12.896 7.533 18.058 5.766 4.37 9.424 4.572 12.896 4.572 3.488 0 16.476-4.076 16.476-15.577 0-9.719-7.641-13.393-13.888-13.393m-3.673 24.8c-3.27 0-5.952-4.464-5.952-10.028 0-5.549 2.681-10.106 5.952-10.106 3.27 0 6.06 4.557 6.06 10.106 0 5.564-2.79 10.028-6.06 10.028m-638.116-63.984c6.045 0 8.23-1.782 9.626-3.27.294 2.077.496 3.658.496 5.255 0 5.657-1.984 12.989-8.928 12.989-2.48 0-3.968-.791-4.96-1.876 2.077-.899 3.766-3.58 3.766-5.859 0-3.565-2.775-6.355-6.355-6.355-3.565 0-6.448 2.79-6.448 6.355v.295c0 .898.202 2.386.605 3.177 1.286 3.565 5.455 8.835 15.375 8.835 8.928 0 15.376-8.54 17.36-13.098.992-2.386 2.48-7.238 2.48-12.803 0-6.045-1.689-12.895-7.532-18.057-5.766-4.356-9.44-4.557-12.912-4.557-3.472 0-16.461 4.06-16.461 15.577 0 9.719 7.641 13.393 13.888 13.393m3.673-24.91c3.271 0 5.952 4.573 5.952 10.123 0 5.564-2.681 10.028-5.952 10.028-3.27 0-6.06-4.464-6.06-10.028 0-5.55 2.79-10.122 6.06-10.122m-11.751 88.396v-42.656c0-.697-.497-1.193-1.195-1.193h-9.826c-.202 0-.388.093-.59.201-.108.094-.294.295-.402.388l-11.114 19.251c-.093.201-.093.403-.093.589 0 .403.294.806.589.992l1.891 1.1c.201.093.403.202.589.202.403 0 .806-.31.992-.605l7.052-12.105v33.836h-7.548c-.682 0-1.178.497-1.178 1.194v2.17c0 .698.496 1.194 1.178 1.194h27.187c.697 0 1.1-.496 1.1-1.194v-2.17c0-.698-.403-1.194-1.1-1.194h-7.533m34.608-24.304c-6.06 0-8.23 1.783-9.625 3.271-.295-2.077-.496-3.674-.496-5.255 0-5.657 1.984-13.004 8.928-13.004 2.48 0 3.968.806 4.96 1.891-2.077.899-3.767 3.565-3.767 5.859 0 3.565 2.775 6.34 6.356 6.34 3.564 0 6.448-2.775 6.448-6.34v-.31c0-.884-.202-2.372-.605-3.162-1.286-3.58-5.456-8.835-15.376-8.835-8.928 0-15.376 8.525-17.36 13.097-.992 2.372-2.48 7.239-2.48 12.788 0 6.06 1.69 12.896 7.533 18.058 5.766 4.37 9.424 4.572 12.896 4.572 3.488 0 16.477-4.076 16.477-15.577 0-9.719-7.642-13.393-13.888-13.393m-3.674 24.8c-3.27 0-5.952-4.464-5.952-10.028 0-5.549 2.682-10.106 5.952-10.106s6.06 4.557 6.06 10.106c0 5.564-2.79 10.028-6.06 10.028" class="TimeSig" style="stroke-width:.992001"/>
  <path d="M2074.985 216.984c.108-.202.108-.31.108-.496 0-.496-.294-.992-.899-1.194-.201-.108-.387-.108-.496-.108-.589 0-.992.31-1.287.806-2.386 4.758-6.354 10.106-11.81 11.501 1.193-1.395 1.689-2.976 1.689-4.759 0-3.874-3.472-6.85-7.347-6.85-3.86.201-6.836 3.472-6.836 7.346.202 5.55 5.55 7.44 10.215 7.44 4.96-.201 8.835-2.681 11.811-6.556l-4.464 15.779c-1.395 4.759-7.053 11.113-12.106 12.4 1.085-1.395 1.69-3.069 1.69-4.759 0-3.967-3.379-6.85-7.254-6.85-3.968 0-6.944 3.379-6.944 7.346 0 2.976 2.092 5.456 4.665 6.34 1.891.806 3.581.992 5.565.992 4.96-.093 8.82-2.666 11.795-6.541l-10.12 36.208 2.68.698 19.345-68.743" class="Rest" style="stroke-width:.992001"/>
  <path fill-rule="evenodd" d="m2117.822 61.777 143.82-18.6V55.68l-143.82 18.6V61.777m0 18.6 143.82-18.6V74.28l-143.82 18.6V80.377M912.112 43.182l150.86 18.6v12.493l-150.86-18.6V43.182m0 18.6 150.86 18.6v12.493l-150.86-18.6V61.782m94.23 30.217 56.63 6.983v12.493l-56.63-6.982V91.999m220.99.83h96.71v12.4h-96.71v-12.4m0 18.6h49.59v12.4h-49.59v-12.4m-569.373-37.2h185.973v12.4H657.959v-12.4m0 18.6h138.853v12.4H657.959v-12.4m47.112 18.6h47.113v12.4h-47.113v-12.4m752.861-18.6h96.71v12.4h-96.71v-12.4m0 18.6h49.59v12.4h-49.59v-12.4m-988.422-18.6h96.705v12.4H469.51v-12.4m0 18.6h49.592v12.4H469.51v-12.4m1370.602-80.601h233.08v12.4h-233.08v-12.4m0 18.6h233.08v12.4h-233.08v-12.4m141.33 18.6h47.12v12.401h-47.12V68.028M229.391 74.229h197.967v12.4H229.391v-12.4m0 18.6h197.967v12.4H229.391v-12.4m141.337 18.6h56.63v12.4h-56.63v-12.4m2084.634-49.63 190.93-18.6v12.459l-190.93 18.6V61.799m0 18.6 190.93-18.6v12.459l-190.93 18.6V80.399m235.57-18.6 190.92-18.6v12.459l-190.92 18.6V61.799m0 18.6 190.92-18.6v12.459l-190.92 18.6V80.399m237.54-74.371h221.68v12.4h-221.68v-12.4m0 18.6h166.88v12.4h-166.88v-12.4m-1500.29 291.387 188.45-12.4v12.427l-188.45 12.4v-12.427m94.22-24.8 94.23-6.2v12.427l-94.23 6.2v-12.427m47.12-21.7 47.11-3.1v12.427l-47.11 3.1v-12.427M199.639 316.029l779.433-6.2v12.4l-779.433 6.2v-12.4m334.343-21.26 49.593-.394v12.4l-49.593.394v-12.4m395.49-3.146 49.6-.394v12.4l-49.6.394v-12.4m268.11 24.392 188.45-12.4v12.427l-188.45 12.4v-12.427m94.22-24.8 94.23-6.2v12.427l-94.23 6.2v-12.427m47.12-21.7 47.11-3.1v12.427l-47.11 3.1v-12.427m1559.8 21.714h221.68v12.4h-221.68v-12.4m0-18.6h166.88v12.4h-166.88v-12.4m-810.65 43.4h96.7v12.4h-96.7v-12.4m0-18.6h49.59v12.4h-49.59v-12.4m337.54-6.2h143.82v12.4h-143.82v-12.4m0-18.6h96.71v12.4h-96.71v-12.4m235.56 18.6h143.82v12.4h-143.82v-12.4m0-18.6h96.71v12.4h-96.71v-12.4" class="Beam"/>
  <path d="M102.162 0h-3.266v42.266c-1.093-.688-2.484-1.094-4.062-1.281-3.563 0-6.438.39-9.609 2.172-3.954 2.078-8.313 6.437-8.313 11.281 0 4.75 4.266 7.031 8.609 7.031 6.938 0 16.641-5.937 16.641-13.469V0m22.25 37.953h30.234v-6.906h-30.234v6.906m0 12.36h30.234v-6.906h-30.234v6.906m72.656-14.219c0 5.688-.234 17.453-8.281 17.453-1.266 0-1.984-.422-1.984-1.203 0-.359.125-.719.359-1.078 1.078-1.734 1.203-2.094 1.203-3.422 0-2.875-2.031-4.859-5.031-4.859-3.313 0-5.703 2.531-5.703 6 0 4.687 4.375 7.687 11.156 7.687 13.625 0 18.844-12.125 18.844-24 0-5.515-1.203-9.609-3.719-13.015-3.062-4.094-7.437-6.313-12.484-6.313-8.703 0-15 6.063-15 14.406 0 7.078 5.047 12.297 11.875 12.297 3.718 0 6.25-1.14 8.765-3.953m-5.156-19.625c4.375 0 4.922 7.375 4.922 10.438 0 5.281-1.922 8.64-4.984 8.64-4.75 0-5.047-5.75-5.047-9.172 0-6.547 1.75-9.906 5.109-9.906m29.578 17.703c0-4.984 1.078-17.703 7.922-17.703 1.5 0 2.578.547 2.578 1.375 0 .422-.062.609-.484 1.141a6.028 6.028 0 0 0-1.203 3.547c0 2.703 2.156 4.625 5.281 4.625 3.422 0 5.578-2.11 5.578-5.407 0-5.156-4.375-8.406-11.219-8.406-5.765 0-10.203 2.219-13.672 6.844-3.546 4.625-5.171 10.14-5.171 17.281 0 6 1.265 10.266 4.078 13.734 2.953 3.61 6.968 5.469 11.89 5.469 8.813 0 15.235-5.937 15.235-14.219 0-7.203-4.922-12.25-12.063-12.25-3.89 0-6.234 1.094-8.75 3.969m5.641.531c3.109.125 4.734 3 4.734 8.407 0 6.953-1.734 10.734-4.922 10.734-3.234 0-5.093-3.469-5.093-9.656 0-2.156.171-4.016.468-5.406.672-2.579 2.532-4.188 4.813-4.079" class="Tempo"/>
  <path d="m2244.112 260.569-9.95.75-.21 1.813h1.55c2.06 0 2.86.437 2.86 1.547 0 .5-.16 1.14-.45 2.203l-6.35 21.453c-1.2 4.094-1.36 4.75-1.36 6.344 0 2.156 1.25 3.5 3.25 3.5 3.16 0 6.36-2.656 9.36-7.75l-1.56-.844c-2.59 3.938-4.75 6.047-6.14 6.047-.55 0-.91-.406-.91-1.047 0-.609 0-.656.66-2.75l9.25-31.266m18.89 31.063c-2.95 3.047-5.11 4.203-7.75 4.203-3 0-4.86-2-4.86-5.203 0-.359.06-1.047.11-1.703 5.89-1.406 6.8-1.703 9.09-2.703 3.91-1.703 6-4.25 6-7.141 0-3.062-2.39-5.156-5.95-5.156-7.3 0-13.89 7.406-13.89 15.594 0 5.406 3.25 8.656 8.64 8.656 3.86 0 7.11-1.703 9.81-5.203l-1.2-1.344m-12.25-4.656c1.14-6.75 4.2-11.047 7.89-11.047 1.66 0 2.75 1.156 2.75 2.844 0 2.406-1.55 4.562-4.3 6.062-1.79 1.047-3.04 1.438-6.34 2.141m30.23-20.594h-4.36l-2.43 8.297h-4.71l-.7 2.344h4.7l-3.75 12.609c-.75 2.547-.95 3.594-.95 4.75 0 2.141 1.55 3.797 3.59 3.797 2.36 0 5.16-1.547 6.91-3.906.7-.938 1.2-1.75 2.5-3.844l-1.5-1c-3.16 4.75-4.55 6.094-6.2 6.094-.71 0-1.14-.547-1.14-1.391 0-.406.04-.75.14-1.156l4.75-15.953h5.45l.7-2.344h-5.45l2.45-8.297m29.24 7.547-9.05.75-.2 1.797h1.2c2 0 2.89.453 2.89 1.406 0 .344-.2 1.391-.5 2.344l-5.09 17.203h4.34l2.36-7.906c1.85-6.25 6-12.547 8.3-12.547.7 0 .89.359.89 1.703s.86 2.156 2.36 2.156c1.7 0 2.95-1.359 2.95-3.203 0-2.156-1.65-3.703-3.95-3.703-2.8 0-5 1.656-7.66 5.797l1.16-5.797m21.8-12.203a2.7 2.7 0 0 0-2.71 2.703c0 1.453 1.21 2.703 2.64 2.703 1.57 0 2.75-1.203 2.75-2.703 0-1.5-1.18-2.703-2.68-2.703m.89 12.203-9.6.75-.2 1.797h1.2c2.05 0 2.85.453 2.85 1.547 0 .5-.1 1.062-.46 2.203l-2.89 9.75c-.95 3.203-1.11 3.906-1.11 5.047 0 1.75 1.5 3.109 3.41 3.109 4.3 0 7.25-4.453 9.34-7.703l-1.54-.844c-2.6 3.938-4.71 6.047-6.05 6.047-.5 0-.84-.453-.84-1.047 0-.5.18-1.406.59-2.812l5.3-17.844m16.54 0-9.04.75-.21 1.797h1.21c2.04 0 2.84.453 2.84 1.547 0 .5-.09 1.062-.45 2.203l-5.1 17.203h4.35l2.04-6.953c1.32-4.344 1.91-5.75 3.71-8.391 2.15-3.203 4.79-5.156 6.95-5.156 1.16 0 2 .906 2 2.047 0 .906-.2 1.906-.75 3.5l-2.66 7.797c-.64 2-.89 3.109-.89 4.156 0 2.156 1.5 3.75 3.46 3.75 3.18 0 6.5-2.703 9.2-7.5l-1.45-1.047c-2.57 4-4.66 6-6.25 6-.46 0-.86-.406-.86-.953 0-.547.15-1.156.95-3.344l2.34-6.906c.82-2.297 1.21-4.203 1.21-5.656 0-2.641-2.14-4.844-4.8-4.844-2.95 0-5.91 2.156-9.25 6.75l1.45-6.75m38.24 1.906c.81-.703 1.25-.953 1.86-.953.5 0 .89.25 1.29.797.8 1.094 1.1 1.297 1.91 1.297 1.14 0 2-.953 2-2.203 0-1.438-1.41-2.594-3.16-2.594-1.75 0-3.09.656-5.7 2.703-1.55-.703-2.7-.953-4.3-.953-5.54 0-10.25 3.953-10.25 8.547 0 2.406.96 4.047 3.1 5.203-2.3.297-3.35.656-4.5 1.656-1 .797-1.64 2.141-1.64 3.344 0 1.703.79 2.75 2.75 3.703-2.96.641-6.41 1.891-6.41 5.547 0 5 6.61 5.594 10.25 5.594 4.95 0 7.8-.594 10.25-2.188 2.16-1.406 3.41-3.562 3.41-5.906 0-5.047-5.36-5.656-9.21-5.906-4.45-.25-4.79-.297-5.5-.438-1.25-.312-1.84-.906-1.84-1.75 0-1.203 1.19-2 3-2 .64 0 1.39.047 2.05.141 2.04.297 2.34.359 3.59.359 2.8 0 5-.703 6.75-2.109 2-1.547 3.25-4.047 3.25-6.344 0-2.359-1-4.156-2.95-5.547m-5.75 0c2.61 0 4.25 1.547 4.25 4 0 3.594-1.64 8.141-5.89 8.141-2.71 0-4.41-1.703-4.41-4.5 0-4.5 2.45-7.641 6.05-7.641m-6.1 21.438c2.25 0 5.85.5 7 .953 1.25.547 1.85 1.406 1.85 2.656 0 2.953-3.14 4.547-8.89 4.547-4.86 0-7.11-1.203-7.11-3.844 0-2.703 2.61-4.312 7.15-4.312" class="StaffText"/>
</svg>
