%abc-2.2
X:1
T:Eliza’s lullaby
O:Orbis
C:deer
S:rangifer’s diary, pt. cvii
F:https://deer.codeberg.page/diary/106/
M:6/8
L:1/8
Q:"Andante" 1/4=96
I:linebreak $
K:C
V:1 clef=treble
C3 G2 E | D3 F2 A | G3 F2 E | F2 E2          D2 |
C3 G2 E | D3 F2 A | G3 F2 E | F2 G2 !fermata!B2 |
C3 F2 B | E3 A2 D | G3 F2 A | B2 A2          B2 |
C2 E4-  | !fermata!E6 |]
